chrom	pos	annotation	gene_count	annotation_impact	HGVS.p	EggNOG.Predicted.Gene	EggNOG.Description	EggNOG.GO.Biological	harmony
17	41066807	intron_variant	1	MODIFIER	NA	NA	NA	NA	13.4541341928931
11	16827070	upstream_gene_variant	1	MODIFIER	NA	NA	NA	NA	12.7556670018155
11	12453433	downstream_gene_variant	3	MODIFIER	NA	NA	NA	NA	12.454369615018
3	12110781	intergenic_region	2	MODIFIER	NA	NA	NA	NA	10.2883605031656
11	32121790	synonymous_variant	4	LOW	p.Val111Val	NA	NA	NA	10.2863937614415
11	12453417	downstream_gene_variant	3	MODIFIER	NA		Homeobox domain	GO:0065007-biological regulation(L=1),	10.104722321132
11	12883778	intron_variant	6	MODIFIER	NA	NA	NA	NA	9.35125071464051
11	12453423	downstream_gene_variant	3	MODIFIER	NA	NA	NA	NA	9.10028548154845
11	10496502	intergenic_region	1	MODIFIER	NA	NA	NA	NA	9.0425715462232
3	12110774	intergenic_region	2	MODIFIER	NA	NA	NA	NA	8.79831543481263
16	25663185	intergenic_region	1	MODIFIER	NA	NA	NA	NA	8.64933799544526
6	33153917	missense_variant	1	MODERATE	p.Met696Thr	NA	NA	NA	8.43640248147994
2	17070066	synonymous_variant	4	LOW	p.Ala50Ala	NA	NA	NA	8.36061549394452
9	1261929	synonymous_variant	1	LOW	p.Gly324Gly		calcium channel, voltage-dependent, gamma subunit 4	GO:0009987-cellular process(L=1),GO:0044699-single-organism process(L=1),GO:0051179-localization(L=1),GO:0065007-biological regulation(L=1),	8.27721482824273
23	13519278	upstream_gene_variant	4	MODIFIER	NA	NA	NA	NA	8.13472757823103
11	32121471	synonymous_variant	4	LOW	p.Arg168Arg	MCM5	minichromosome maintenance complex component 5	GO:0008152-metabolic process(L=1),GO:0009987-cellular process(L=1),GO:0032501-multicellular organismal process(L=1),GO:0032502-developmental process(L=1),GO:0044699-single-organism process(L=1),GO:0065007-biological regulation(L=1),	7.91777162624231
23	8221025	downstream_gene_variant	5	MODIFIER	NA	NA	NA	NA	7.85023850198073
11	32121775	synonymous_variant	4	LOW	p.Pro116Pro	NA	NA	NA	7.8376857779015
11	29783894	intron_variant	2	MODIFIER	NA	NA	NA	NA	7.80337512050928
23	5172016	intergenic_region	4	MODIFIER	NA	NA	NA	NA	7.78847751069286
22	4884167	intron_variant	1	MODIFIER	NA	NA	NA	NA	7.7788528908113
12	13227473	intron_variant	1	MODIFIER	NA	NA	NA	NA	7.73234676965175
2	17070069	synonymous_variant	4	LOW	p.Ala51Ala	NA	NA	NA	7.56575327257022
23	8221026	downstream_gene_variant	5	MODIFIER	NA	NA	NA	NA	7.48467807111787
25	4756925	upstream_gene_variant	1	MODIFIER	NA	NA	NA	NA	7.46025787331181
11	29573964	missense_variant	2	MODERATE	p.Thr906Ala	NA	NA	NA	7.36773044660672
23	5172112	intergenic_region	4	MODIFIER	NA	NA	NA	NA	7.33124903353374
25	8053655	splice_region_variant&intron_variant	1	LOW	NA	NA	NA	NA	7.150614408084
22	6552978	intron_variant	1	MODIFIER	NA	NA	NA	NA	7.01012789975052
16	3825459	intergenic_region	1	MODIFIER	NA	NA	NA	NA	6.79405127810737
20	18032361	intron_variant	1	MODIFIER	NA	NA	NA	NA	6.78535131164449
2	17070075	synonymous_variant	4	LOW	p.Glu53Glu	NA	NA	NA	6.7480275645281
1	19720477	5_prime_UTR_variant	1	MODIFIER	NA	NA	NA	NA	6.71933493917076
23	5172013	intergenic_region	4	MODIFIER	NA	NA	NA	NA	6.706706257954
11	32121839	downstream_gene_variant	1	MODIFIER	NA		heme oxygenase (decycling) 1	GO:0008152-metabolic process(L=1),GO:0009987-cellular process(L=1),GO:0050896-response to stimulus(L=1),	6.70350255233186
22	5235681	intron_variant	2	MODIFIER	NA	NA	NA	NA	6.65812484011683
23	8317239	missense_variant	3	MODERATE	p.Arg367Trp	NA	NA	NA	6.64219103720906
20	7648630	upstream_gene_variant	3	MODIFIER	NA	NA	NA	NA	6.58339774541547
17	758851	upstream_gene_variant	1	MODIFIER	NA	NA	NA	NA	6.55690928003616
2	18253582	intergenic_region	2	MODIFIER	NA	NA	NA	NA	6.51867830696423
19	13060717	intron_variant	2	MODIFIER	NA	NA	NA	NA	6.50299192238223
2	4331088	intergenic_region	1	MODIFIER	NA	NA	NA	NA	6.45763139006757
1	16444557	downstream_gene_variant	1	MODIFIER	NA	NA	NA	NA	6.42333354294126
10	11984208	intergenic_region	1	MODIFIER	NA	NA	NA	NA	6.42279512989703
10	7901729	downstream_gene_variant	1	MODIFIER	NA				6.38602036966689
2	17070102	synonymous_variant	4	LOW	p.Tyr62Tyr	NA	NA	NA	6.31341477797321
11	29573932	synonymous_variant	2	LOW	p.Gly916Gly	NA	NA	NA	6.30338987472184
23	13519350	upstream_gene_variant	4	MODIFIER	NA	NA	NA	NA	6.24204862891644
15	12212367	3_prime_UTR_variant	1	MODIFIER	NA	NA	NA	NA	6.22846792319712
11	12883779	intron_variant	6	MODIFIER	NA	NA	NA	NA	6.06711867920209
22	9092841	intron_variant	1	MODIFIER	NA	TMEM131	transmembrane protein 131		6.01835249920501
23	8221029	downstream_gene_variant	5	MODIFIER	NA	NA	NA	NA	5.98959641527286
13	14313937	downstream_gene_variant	3	MODIFIER	NA	NA	NA	NA	5.98394112558538
22	11622504	intron_variant	1	MODIFIER	NA	NA	NA	NA	5.98235655459663
11	29783892	intron_variant	2	MODIFIER	NA	NA	NA	NA	5.93946178949427
11	32121472	missense_variant	4	MODERATE	p.Arg168Lys	NA	NA	NA	5.93545850679719
10	10708780	downstream_gene_variant	1	MODIFIER	NA	KRIT1	KRIT1, ankyrin repeat containing	GO:0009987-cellular process(L=1),GO:0032501-multicellular organismal process(L=1),GO:0032502-developmental process(L=1),GO:0044699-single-organism process(L=1),GO:0065007-biological regulation(L=1),GO:0071840-cellular component organization or biogenesis(L=1),	5.91033987680598
17	2551989	upstream_gene_variant	1	MODIFIER	NA	NA	NA	NA	5.90873924791187
9	3733853	intergenic_region	1	MODIFIER	NA	NA	NA	NA	5.90131116936816
23	13519394	upstream_gene_variant	4	MODIFIER	NA	NA	NA	NA	5.83952080157632
23	14921642	intron_variant	2	MODIFIER	NA	NA	NA	NA	5.80778361325695
20	7648486	upstream_gene_variant	3	MODIFIER	NA	NA	NA	NA	5.78786144446719
17	15124396	intergenic_region	1	MODIFIER	NA	NA	NA	NA	5.72106514640287
2	18253600	intergenic_region	2	MODIFIER	NA	NA	NA	NA	5.67468098110577
NA	3729	intergenic_region	7	MODIFIER	NA	NA	NA	NA	5.64304613646232
20	13454640	missense_variant	1	MODERATE	p.Gly425Ser	SMARCC1	SWI SNF related, matrix associated, actin dependent regulator of chromatin, subfamily c, member		5.60989427874141
21	15617689	intergenic_region	7	MODIFIER	NA	NA	NA	NA	5.59111775955053
23	5171986	intergenic_region	4	MODIFIER	NA	NA	NA	NA	5.58614361936526
23	8317236	missense_variant	3	MODERATE	p.Thr368Pro	NAPEPLD	N-acyl phosphatidylethanolamine phospholipase D	GO:0008152-metabolic process(L=1),	5.58317852801236
17	23766455	intron_variant	1	MODIFIER	NA	NA	NA	NA	5.57772651577445
19	13060733	intron_variant	2	MODIFIER	NA	NA	NA	NA	5.57135333312739
11	12883792	intron_variant	6	MODIFIER	NA	NA	NA	NA	5.48013471386523
11	2067547	downstream_gene_variant	1	MODIFIER	NA	NA	NA	NA	5.46862008056506
20	19666568	intron_variant	1	MODIFIER	NA	NA	NA	NA	5.457130090988
NA	17919	intergenic_region	7	MODIFIER	NA	NA	NA	NA	5.40504366420764
20	7648628	upstream_gene_variant	3	MODIFIER	NA	NA	NA	NA	5.33942249571193
23	8221045	downstream_gene_variant	5	MODIFIER	NA	NA	NA	NA	5.32567313395934
16	5606697	intergenic_region	1	MODIFIER	NA	NA	NA	NA	5.32453858039276
18	26597235	intron_variant	1	MODIFIER	NA		NA		5.32029509156392
NA	94558	intergenic_region	7	MODIFIER	NA	NA	NA	NA	5.26242794504621
2	13899538	upstream_gene_variant	1	MODIFIER	NA	NA	NA	NA	5.24920995478663
1	30150352	intron_variant	1	MODIFIER	NA	NEK3	NIMA-related kinase 3	GO:0008152-metabolic process(L=1),GO:0009987-cellular process(L=1),	5.24101583369609
18	17712895	intergenic_region	1	MODIFIER	NA	NA	NA	NA	5.23475076990538
7	35831146	intron_variant	1	MODIFIER	NA	NA	NA	NA	5.22250936571665
12	9126614	5_prime_UTR_variant	1	MODIFIER	NA	NA	NA	NA	5.22071095352512
19	21163738	missense_variant	1	MODERATE	p.Leu209Met	NA	NA	NA	5.2131907028079
NA	136	intergenic_region	7	MODIFIER	NA	NA	NA	NA	5.20356164102685
1	4005535	intergenic_region	1	MODIFIER	NA	NA	NA	NA	5.19401104220096
24	5872993	intron_variant	1	MODIFIER	NA	NA	NA	NA	5.1703615883788
NA	14740	intergenic_region	7	MODIFIER	NA	NA	NA	NA	5.16990192340613
22	5235680	intron_variant	2	MODIFIER	NA		Ezrin/radixin/moesin family		5.15918110671595
2	8873167	intergenic_region	1	MODIFIER	NA	NA	NA	NA	5.15762817498319
19	40015177	intergenic_region	1	MODIFIER	NA	NA	NA	NA	5.15412821492289
6	34307040	intron_variant	1	MODIFIER	NA	ZSWIM8	zinc finger, SWIM-type containing 8		5.139135161552
6	25501948	intron_variant	1	MODIFIER	NA	NA	NA	NA	5.13375034414171
4	21725898	intergenic_region	1	MODIFIER	NA	NA	NA	NA	5.1225094851616
11	11735290	upstream_gene_variant	1	MODIFIER	NA	NA	NA	NA	5.12090565293539
23	14921645	intron_variant	2	MODIFIER	NA	NA	NA	NA	5.08497039549543
11	12883797	intron_variant	6	MODIFIER	NA	NA	NA	NA	5.07580904904711
11	12883796	intron_variant	6	MODIFIER	NA	NA	NA	NA	5.05957914984709
3	29964204	intergenic_region	1	MODIFIER	NA	NA	NA	NA	5.0511963406129
11	10150898	intergenic_region	1	MODIFIER	NA	NA	NA	NA	5.0174930146357
20	22826539	synonymous_variant	3	LOW	p.Leu72Leu	NA	NA	NA	5.01444066321029
24	11196667	synonymous_variant	1	LOW	p.Thr1182Thr	ZNF219	zinc finger protein 219		5.00926680781564
2	1917514	intron_variant	1	MODIFIER	NA	NA	NA	NA	5.0034253787886
13	14313936	downstream_gene_variant	3	MODIFIER	NA	NA	NA	NA	4.98992520512749
25	5987132	downstream_gene_variant	1	MODIFIER	NA	NA	NA	NA	4.98498558740937
24	9406052	intron_variant	1	MODIFIER	NA	NA	NA	NA	4.98071226372632
20	21120728	synonymous_variant	2	LOW	p.Ala1056Ala	NA	NA	NA	4.9757816911728
20	22826543	missense_variant	3	MODERATE	p.Leu71Gln	NA	NA	NA	4.96573368021284
23	8221064	downstream_gene_variant	5	MODIFIER	NA	NA	NA	NA	4.90937347264987
11	2061023	upstream_gene_variant	1	MODIFIER	NA	NA	NA	NA	4.90465512780111
23	8317238	missense_variant	3	MODERATE	p.Arg367Leu	NA	NA	NA	4.9033020205604
15	1897660	intergenic_region	1	MODIFIER	NA	NA	NA	NA	4.87636899470463
23	22341189	intron_variant	1	MODIFIER	NA	USP6NL	USP6 N-terminal like	GO:0065007-biological regulation(L=1),	4.8455418228892
1	3357233	intergenic_region	1	MODIFIER	NA	NA	NA	NA	4.83843748022984
24	6187095	intron_variant	2	MODIFIER	NA	NA	NA	NA	4.8160049628807
16	36872523	intergenic_region	1	MODIFIER	NA	NA	NA	NA	4.80094662932783
24	6187094	splice_region_variant&intron_variant	2	LOW	NA	NA	NA	NA	4.75119712778377
6	3355494	downstream_gene_variant	1	MODIFIER	NA	NA	NA	NA	4.74960605037347
13	28256787	intron_variant	1	MODIFIER	NA		solute carrier family 4, sodium bicarbonate cotransporter, member 5	GO:0009987-cellular process(L=1),GO:0044699-single-organism process(L=1),GO:0051179-localization(L=1),	4.74236915285681
11	22846268	intron_variant	1	MODIFIER	NA	NA	NA	NA	4.73633266575933
23	13519390	upstream_gene_variant	4	MODIFIER	NA	NA	NA	NA	4.72744279196108
12	21968577	intergenic_region	1	MODIFIER	NA	NA	NA	NA	4.7143663611106
13	15427579	intron_variant	1	MODIFIER	NA		multiple C2 domains, transmembrane 1		4.71395678607599
19	1099673	upstream_gene_variant	1	MODIFIER	NA	NA	NA	NA	4.70005834131927
11	12883791	intron_variant	6	MODIFIER	NA	NA	NA	NA	4.67886732848276
11	35537194	upstream_gene_variant	1	MODIFIER	NA	NA	NA	NA	4.64968939006609
20	22826538	missense_variant	3	MODERATE	p.Ala73Ser	NA	NA	NA	4.63361184188382
2	21197227	intergenic_region	2	MODIFIER	NA	NA	NA	NA	4.62754229933471
11	15877087	intergenic_region	1	MODIFIER	NA	NA	NA	NA	4.61887112690547
17	19993417	intron_variant	1	MODIFIER	NA	NA	NA	NA	4.60426794559044
18	19882622	intergenic_region	1	MODIFIER	NA	NA	NA	NA	4.57649727322833
2	25230010	intron_variant	1	MODIFIER	NA	NA	NA	NA	4.56694709270273
10	3181040	intergenic_region	1	MODIFIER	NA	NA	NA	NA	4.55940465480531
9	3897905	upstream_gene_variant	1	MODIFIER	NA	NA	NA	NA	4.55764844892116
NA	845	intergenic_region	7	MODIFIER	NA	NA	NA	NA	4.55382187275074
19	7161530	synonymous_variant	1	LOW	p.Phe598Phe	NA	NA	NA	4.53632060552202
2	21197224	intergenic_region	2	MODIFIER	NA	NA	NA	NA	4.53069480952926
4	23572452	intergenic_region	1	MODIFIER	NA	NA	NA	NA	4.52677349456548
9	5880083	upstream_gene_variant	1	MODIFIER	NA	NA	NA	NA	4.52219680259402
11	31091819	synonymous_variant	1	LOW	p.Tyr83Tyr	NA	NA	NA	4.51076746892342
20	21120730	missense_variant	2	MODERATE	p.Ala1056Ser	NA	NA	NA	4.50834816444898
13	14313932	downstream_gene_variant	3	MODIFIER	NA	NA	NA	NA	4.50661558032371
8	766292	upstream_gene_variant	1	MODIFIER	NA	NA	NA	NA	4.4984553032686
12	19416922	intergenic_region	1	MODIFIER	NA	NA	NA	NA	4.49553940391812
