chrom	pos	annotation	gene_count	annotation_impact	HGVS.p	EggNOG.Predicted.Gene	EggNOG.Description	EggNOG.GO.Biological	maha
17	41066807	intron_variant	1	MODIFIER	NA	NA	NA	NA	13.4145210135773
11	16827070	upstream_gene_variant	1	MODIFIER	NA	NA	NA	NA	12.7109403008423
11	12453433	downstream_gene_variant	3	MODIFIER	NA	NA	NA	NA	12.4167013203351
11	32121790	synonymous_variant	4	LOW	p.Val111Val	NA	NA	NA	10.3159959630994
3	12110781	intergenic_region	2	MODIFIER	NA	NA	NA	NA	10.2324522193184
11	12453417	downstream_gene_variant	3	MODIFIER	NA		Homeobox domain	GO:0065007-biological regulation(L=1),	10.0734259469369
11	12883778	intron_variant	2	MODIFIER	NA	NA	NA	NA	9.40271691436669
11	12453423	downstream_gene_variant	3	MODIFIER	NA	NA	NA	NA	9.06082375116433
11	10496502	intergenic_region	1	MODIFIER	NA	NA	NA	NA	8.99639743325272
3	12110774	intergenic_region	2	MODIFIER	NA	NA	NA	NA	8.74196720057717
16	25663185	intergenic_region	1	MODIFIER	NA	NA	NA	NA	8.59374431279845
2	17070066	synonymous_variant	4	LOW	p.Ala50Ala	NA	NA	NA	8.46176734837024
9	1261929	synonymous_variant	1	LOW	p.Gly324Gly		calcium channel, voltage-dependent, gamma subunit 4	GO:0009987-cellular process(L=1),GO:0044699-single-organism process(L=1),GO:0051179-localization(L=1),GO:0065007-biological regulation(L=1),	8.3458534393003
6	33153917	missense_variant	1	MODERATE	p.Met696Thr	NA	NA	NA	8.31595622821182
23	13519278	upstream_gene_variant	3	MODIFIER	NA	NA	NA	NA	8.23783283499978
11	32121471	synonymous_variant	4	LOW	p.Arg168Arg	MCM5	minichromosome maintenance complex component 5	GO:0008152-metabolic process(L=1),GO:0009987-cellular process(L=1),GO:0032501-multicellular organismal process(L=1),GO:0032502-developmental process(L=1),GO:0044699-single-organism process(L=1),GO:0065007-biological regulation(L=1),	8.07240579916493
11	32121775	synonymous_variant	4	LOW	p.Pro116Pro	NA	NA	NA	7.99405762391025
23	5172016	intergenic_region	3	MODIFIER	NA	NA	NA	NA	7.95575682980689
22	4884167	intron_variant	1	MODIFIER	NA	NA	NA	NA	7.93795272432647
11	29783894	intron_variant	2	MODIFIER	NA	NA	NA	NA	7.89911975373698
23	8221025	downstream_gene_variant	3	MODIFIER	NA	NA	NA	NA	7.86307498002648
2	17070069	synonymous_variant	4	LOW	p.Ala51Ala	NA	NA	NA	7.68190474875885
12	13227473	intron_variant	1	MODIFIER	NA	NA	NA	NA	7.64102137018255
11	29573964	missense_variant	2	MODERATE	p.Thr906Ala	NA	NA	NA	7.54052670867498
23	5172112	intergenic_region	3	MODIFIER	NA	NA	NA	NA	7.49840167044511
23	8221026	downstream_gene_variant	3	MODIFIER	NA	NA	NA	NA	7.47867639911661
25	4756925	upstream_gene_variant	1	MODIFIER	NA	NA	NA	NA	7.32279253450993
25	8053655	splice_region_variant&intron_variant	1	LOW	NA	NA	NA	NA	7.16674964541917
22	6552978	intron_variant	1	MODIFIER	NA	NA	NA	NA	7.03674247664061
20	18032361	intron_variant	1	MODIFIER	NA	NA	NA	NA	6.90863325243329
2	17070075	synonymous_variant	4	LOW	p.Glu53Glu	NA	NA	NA	6.90810956778848
23	5172013	intergenic_region	3	MODIFIER	NA	NA	NA	NA	6.89144242787495
11	32121839	downstream_gene_variant	1	MODIFIER	NA		heme oxygenase (decycling) 1	GO:0008152-metabolic process(L=1),GO:0009987-cellular process(L=1),GO:0050896-response to stimulus(L=1),	6.88128892672311
23	8317239	missense_variant	1	MODERATE	p.Arg367Trp	NA	NA	NA	6.78491458057383
20	7648630	upstream_gene_variant	1	MODIFIER	NA	NA	NA	NA	6.77219233305867
16	3825459	intergenic_region	1	MODIFIER	NA	NA	NA	NA	6.72616164700379
10	11984208	intergenic_region	1	MODIFIER	NA	NA	NA	NA	6.61403919471419
22	5235681	intron_variant	1	MODIFIER	NA	NA	NA	NA	6.58593285701816
1	19720477	5_prime_UTR_variant	1	MODIFIER	NA	NA	NA	NA	6.58304126769126
2	18253582	intergenic_region	1	MODIFIER	NA	NA	NA	NA	6.57403759847161
2	4331088	intergenic_region	1	MODIFIER	NA	NA	NA	NA	6.55762608111351
17	758851	upstream_gene_variant	1	MODIFIER	NA	NA	NA	NA	6.48916100274787
11	29573932	synonymous_variant	2	LOW	p.Gly916Gly	NA	NA	NA	6.48862074647547
2	17070102	synonymous_variant	4	LOW	p.Tyr62Tyr	NA	NA	NA	6.43335174351893
23	13519350	upstream_gene_variant	3	MODIFIER	NA	NA	NA	NA	6.39679101181133
19	13060717	intron_variant	1	MODIFIER	NA	NA	NA	NA	6.33170426035762
10	7901729	downstream_gene_variant	1	MODIFIER	NA				6.25392917607132
1	16444557	downstream_gene_variant	1	MODIFIER	NA	NA	NA	NA	6.24766988799853
11	12883779	intron_variant	2	MODIFIER	NA	NA	NA	NA	6.16130953036656
22	11622504	intron_variant	1	MODIFIER	NA	NA	NA	NA	6.10782429977086
15	12212367	3_prime_UTR_variant	1	MODIFIER	NA	NA	NA	NA	6.09790529008009
22	9092841	intron_variant	1	MODIFIER	NA	TMEM131	transmembrane protein 131		6.04835722352391
9	3733853	intergenic_region	1	MODIFIER	NA	NA	NA	NA	6.03888986551054
13	14313937	downstream_gene_variant	1	MODIFIER	NA	NA	NA	NA	6.02516860837337
11	32121472	missense_variant	4	MODERATE	p.Arg168Lys	NA	NA	NA	6.02125714117797
10	10708780	downstream_gene_variant	1	MODIFIER	NA	KRIT1	KRIT1, ankyrin repeat containing	GO:0009987-cellular process(L=1),GO:0032501-multicellular organismal process(L=1),GO:0032502-developmental process(L=1),GO:0044699-single-organism process(L=1),GO:0065007-biological regulation(L=1),GO:0071840-cellular component organization or biogenesis(L=1),	6.00589041391827
11	29783892	intron_variant	2	MODIFIER	NA	NA	NA	NA	5.94235106599859
23	13519394	upstream_gene_variant	3	MODIFIER	NA	NA	NA	NA	5.9400393357825
23	8221029	downstream_gene_variant	3	MODIFIER	NA	NA	NA	NA	5.9283205571359
