ID_indiv LAT LONG JA_TAVG JA_TMED JA_TMIN JA_TMAX JA_TVAR K1 K2 K9 K11 K15
Golden1A02 68.586878 -149.722825 9.29469086 9 2 16 7.116192372 0.020650781659792 -0.878491870909027 0.132640149352973 0.0270500129563006 7.67235452225901e-07
Golden1A03 68.62204 -149.77617 8.458291331 8.125 1.125 15.75 7.647271623 0.0206507266918226 -0.8784893558516 0.132639359788432 0.0270495149079091 -5.74405445041837e-07
Golden1A04 68.60555 -149.7361 8.458291331 8.125 1.125 15.75 7.647271623 0.0206505434656265 -0.87848097232607 0.132636727910869 0.0270478547432475 -2.81047379185884e-06
Golden1A05 68.93901 -150.12854 ? ? ? ? ? 0.020650781659792 -0.878491870909027 0.132640149352973 0.0270500129563006 7.67235452225901e-07
Golden1A07 69.45268 -150.71251 ? ? ? ? ? 0.020650616755884 -0.878484325736746 0.13263778065935 0.027048518811126 -3.25768723963282e-06
Golden1A10 68.54027 -149.282667 7.96922043 7.625 1.75 17.375 6.385045922 -0.735945412733584 0.314457549627755 0.192533072482834 0.0174173863997203 7.9875501185489e-07
Golden1A11 68.54114 -149.285513 7.96922043 7.625 1.75 17.375 6.385045922 -0.735935813327515 0.314452936941227 0.192528872289746 0.0174153534365176 -2.77894882715068e-06
Golden1A12 68.766113 -149.554721 7.726666667 7.375 0.5 18.5 9.492294216 -0.735945412733584 0.314457549627755 0.192533072482834 0.0174173863997203 7.9875501185489e-07
Golden1B01 68.59193 -149.72536 8.458291331 8.125 1.125 15.75 7.647271623 0.0206504152070314 -0.878475103858741 0.132634885593607 0.0270466926303339 -5.9409692188539e-06
Golden1B02 68.58677 -149.72253 9.29469086 9 2 16 7.116192372 0.0206509282406752 -0.878498577729605 0.132642254854175 0.0270513410887011 2.10887653412373e-06
Golden1B03 68.62199 -149.77505 8.458291331 8.125 1.125 15.75 7.647271623 0.0206509282406752 -0.878498577729605 0.132642254854175 0.0270513410887011 2.10887653412373e-06
Golden1B04 68.60491 -149.73471 8.458291331 8.125 1.125 15.75 7.647271623 0.0206509648859881 -0.878500254434556 0.132642781230536 0.0270516731209622 3.00330379898739e-06
Golden1B05 68.93854 -150.13164 ? ? ? ? ? 0.0206506534011969 -0.878486002441697 0.132638307035711 0.0270488508433871 -2.36325997476916e-06
Golden1B08 69.9356 -150.85579 ? ? ? ? ? 0.0206509282406752 -0.878498577729605 0.132642254854175 0.0270513410887011 2.10887653412373e-06
Golden1B09 68.964611 -149.701186 7.726666667 7.375 0.5 18.5 9.492294216 -0.735950581644714 0.314460033381683 0.192535334123309 0.0174184810737632 1.69317955092674e-06
Golden1B10 68.540525 -149.282397 7.96922043 7.625 1.75 17.375 6.385045922 -0.73593729015953 0.314453646584654 0.192529518469711 0.0174156662029273 -4.12059037135926e-06
Golden1B11 68.541314 -149.28663 7.96922043 7.625 1.75 17.375 6.385045922 -0.735923998673977 0.314447259788398 0.192523702820351 0.017412851328735 -7.69829231613006e-06
Golden1B12 68.766113 -149.554721 7.726666667 7.375 0.5 18.5 9.492294216 -0.735939505406999 0.314454711050954 0.192530487746017 0.0174161353475072 -2.77895072137158e-06
Golden1C02 68.586303 -149.721571 9.29469086 9 2 16 7.116192372 0.0206509282406752 -0.878498577729605 0.132642254854175 0.0270513410887011 2.10887653412373e-06
Golden1C04 68.604453 -149.734594 8.458291331 8.125 1.125 15.75 7.647271623 0.0206509648859881 -0.878500254434556 0.132642781230536 0.0270516731209622 3.00330379898739e-06
Golden1C05 68.94015 -150.13855 ? ? ? ? ? 0.0206509099180188 -0.878497739377129 0.132641991665995 0.0270511750725706 1.66166290166414e-06
Golden1C06 69.45026 -150.71449 ? ? ? ? ? 0.0206507450144791 -0.878490194204075 0.132639622976612 0.0270496809240396 -1.27191812637761e-07
Golden1C09 68.539486 -149.28108 7.96922043 7.625 1.75 17.375 6.385045922 -0.735943935901938 0.314456839983555 0.19253242629863 0.017417073636667 -9.56714214517262e-08
Golden1C10 68.540657 -149.283094 7.96922043 7.625 1.75 17.375 6.385045922 -0.73594688956523 0.314458259271955 0.192533718667038 0.0174176991627735 1.69318144516151e-06
Golden1C11 68.539591 -149.281346 7.96922043 7.625 1.75 17.375 6.385045922 -0.735949104813068 0.314459323737483 0.192534687939105 0.0174181683107099 7.98753117675632e-07
Golden1C12 68.766113 -149.554721 7.726666667 7.375 0.5 18.5 9.492294216 -0.735953535308007 0.314461452670083 0.192536626491718 0.0174191065998697 3.48203241759548e-06
Golden1D01 68.59144 -149.72534 8.458291331 8.125 1.125 15.75 7.647271623 0.0206506534011969 -0.878486002441697 0.132638307035711 0.0270488508433871 -2.36325997476916e-06
Golden1D03 68.60576 -149.73741 8.458291331 8.125 1.125 15.75 7.647271623 0.0434745214183012 -0.834205907838877 0.133001658434222 0.0335825996405337 1.65171876675974e-06
Golden1D04 68.93862 -150.12836 ? ? ? ? ? 0.0206507450144791 -0.878490194204075 0.132639622976612 0.0270496809240396 -1.27191812637761e-07
Golden1D05 69.45402 -150.71362 ? ? ? ? ? 0.0206504518523443 -0.878476780563692 0.132635411969967 0.0270470246625949 -5.04654195399024e-06
Golden1D06 69.45257 -150.70667 ? ? ? ? ? 0.0206509648859881 -0.878500254434556 0.132642781230536 0.0270516731209622 3.00330379898739e-06
Golden1D07 69.4507 -150.71315 ? ? ? ? ? 0.0206507999824484 -0.878492709261502 0.132640412541153 0.0270501789724311 1.21444908468549e-06
Golden1D09 68.539262 -149.280722 7.96922043 7.625 1.75 17.375 6.385045922 -0.735939505406999 0.314454711050954 0.192530487746017 0.0174161353475072 -2.77895072137158e-06
Golden1D10 68.54077 -149.283598 7.96922043 7.625 1.75 17.375 6.385045922 -0.73594688956523 0.314458259271955 0.192533718667038 0.0174176991627735 1.69318144516151e-06
Golden1D11 68.539838 -149.281525 7.96922043 7.625 1.75 17.375 6.385045922 -0.735943935901938 0.314456839983555 0.19253242629863 0.017417073636667 -9.56714214517262e-08
Golden1D12 68.766113 -149.554721 7.726666667 7.375 0.5 18.5 9.492294216 -0.735951320060537 0.314460388203783 0.192535657215412 0.0174186374552898 2.1403927676078e-06
Golden1E01 68.59314 -149.73141 8.458291331 8.125 1.125 15.75 7.647271623 0.0206504701750008 -0.878477618916168 0.132635675158148 0.0270471906787254 -4.59932832158616e-06
Golden1E02 68.62362 -149.77643 8.458291331 8.125 1.125 15.75 7.647271623 0.0206508549504177 -0.878495224318929 0.132641202105694 0.0270506770208227 2.55608998195322e-06
Golden1E03 68.60623 -149.73811 8.458291331 8.125 1.125 15.75 7.647271623 0.0206508183051048 -0.878493547613978 0.132640675729333 0.0270503449885616 1.66166271708956e-06
Golden1E04 68.939 -150.12973 ? ? ? ? ? 0.0206508549504177 -0.878495224318929 0.132641202105694 0.0270506770208227 2.55608998195322e-06
Golden1E05 69.45439 -150.71405 ? ? ? ? ? 0.0206509282406752 -0.878498577729605 0.132642254854175 0.0270513410887011 2.10887653412373e-06
Golden1E08 68.96534 -149.70133 7.726666667 7.375 0.5 18.5 9.492294216 -0.735949104813068 0.314459323737483 0.192534687939105 0.0174181683107099 7.98753117675632e-07
Golden1E09 68.539474 -149.281149 7.96922043 7.625 1.75 17.375 6.385045922 -0.735946151149407 0.314457904449855 0.192533395574936 0.0174175427812469 1.24596822848044e-06
Golden1E10 68.54096 -149.28419 7.96922043 7.625 1.75 17.375 6.385045922 -0.735952058476361 0.314460743025883 0.192535980307514 0.0174187938368164 2.58760598428887e-06
Golden1E11 68.766113 -149.554721 7.726666667 7.375 0.5 18.5 9.492294216 -0.735949843228891 0.314459678559583 0.192535011031207 0.0174183246922365 1.24596633430119e-06
Golden1E12 68.766113 -149.554721 7.726666667 7.375 0.5 18.5 9.492294216 -0.735951320060537 0.314460388203783 0.192535657215412 0.0174186374552898 2.1403927676078e-06
Golden1F01 68.563894 -149.650939 9.29469086 9 2 16 7.116192372 0.0206504884976572 -0.878478457268644 0.132635938346328 0.027047356694856 -4.15211468912657e-06
Golden1F02 68.62302 -149.77655 8.458291331 8.125 1.125 15.75 7.647271623 0.0206504518523443 -0.878476780563692 0.132635411969967 0.0270470246625949 -5.04654195399024e-06
Golden1F04 68.93885 -150.13402 ? ? ? ? ? 0.0206509465633317 -0.87849941608208 0.132642518042355 0.0270515071048316 2.55609016658331e-06
Golden1F05 69.45472 -150.71474 ? ? ? ? ? 0.0206508549504177 -0.878495224318929 0.132641202105694 0.0270506770208227 2.55608998195322e-06
Golden1F06 69.45274 -150.70538 ? ? ? ? ? 0.0206509648859881 -0.878500254434556 0.132642781230536 0.0270516731209622 3.00330379898739e-06
Golden1F08 68.96545 -149.702018 7.726666667 7.375 0.5 18.5 9.492294216 -0.706029896909245 0.299109793216737 0.140019161903855 0.0198498785473272 3.58562909608118e-06
Golden1F09 68.539667 -149.281602 7.96922043 7.625 1.75 17.375 6.385045922 -0.735946151149407 0.314457904449855 0.192533395574936 0.0174175427812469 1.24596822848044e-06
Golden1F10 68.541148 -149.284799 7.96922043 7.625 1.75 17.375 6.385045922 -0.735943197486115 0.314456485161455 0.192532103206528 0.0174169172551404 -5.4288463813279e-07
Golden1F11 68.766113 -149.554721 7.726666667 7.375 0.5 18.5 9.492294216 -0.735949843228891 0.314459678559583 0.192535011031207 0.0174183246922365 1.24596633430119e-06
Golden1F12 68.766113 -149.554721 7.726666667 7.375 0.5 18.5 9.492294216 -0.73594688956523 0.314458259271955 0.192533718667038 0.0174176991627735 1.69318144516151e-06
Golden1G01 68.56351 -149.64786 9.29469086 9 2 16 7.116192372 0.0206507633371355 -0.878491032556551 0.132639886164792 0.0270498469401701 3.20021819821825e-07
Golden1G02 68.62131 -149.77341 8.458291331 8.125 1.125 15.75 7.647271623 0.0206506900465098 -0.878487679146648 0.132638833412071 0.027049182875648 -1.4688327099055e-06
Golden1G03 68.60713 -149.73813 8.458291331 8.125 1.125 15.75 7.647271623 0.0206508549504177 -0.878495224318929 0.132641202105694 0.0270506770208227 2.55608998195322e-06
Golden1G04 68.93971 -150.12683 ? ? ? ? ? 0.0206508915953623 -0.878496901024653 0.132641728477815 0.0270510090564401 1.21444926931558e-06
Golden1G08 68.96524 -149.70183 7.726666667 7.375 0.5 18.5 9.492294216 -0.700526126698656 0.296286445954366 0.130369501766136 0.0202947999070617 1.36859358704222e-06
Golden1G09 68.539927 -149.273913 7.96922043 7.625 1.75 17.375 6.385045922 -0.735918829763216 0.314444776033698 0.192521441175636 0.0174117566580485 -1.08287848327865e-05
Golden1G10 68.541288 -149.285375 7.96922043 7.625 1.75 17.375 6.385045922 -0.735949104813068 0.314459323737483 0.192534687939105 0.0174181683107099 7.98753117675632e-07
Golden1G11 68.766113 -149.554721 7.726666667 7.375 0.5 18.5 9.492294216 -0.735951320060537 0.314460388203783 0.192535657215412 0.0174186374552898 2.1403927676078e-06
Golden1G12 68.766113 -149.554721 7.726666667 7.375 0.5 18.5 9.492294216 -0.735949104813068 0.314459323737483 0.192534687939105 0.0174181683107099 7.98753117675632e-07
Golden1H01 68.56366 -149.64935 9.29469086 9 2 16 7.116192372 0.0206508183051048 -0.878493547613978 0.132640675729333 0.0270503449885616 1.66166271708956e-06
Golden1H02 68.62155 -149.77492 8.458291331 8.125 1.125 15.75 7.647271623 0.02064957236594 -0.878436539642543 0.132622778950034 0.027039055878261 -1.98045923780477e-05
Golden1H03 68.60783 -149.73798 8.458291331 8.125 1.125 15.75 7.647271623 0.0206503235937492 -0.878470912096363 0.132633569652706 0.0270458625496813 -8.1770373809853e-06
Golden1H04 68.93867 -150.13306 ? ? ? ? ? 0.020650781659792 -0.878491870909027 0.132640149352973 0.0270500129563006 7.67235452225901e-07
Golden1H08 68.9657 -149.70258 7.726666667 7.375 0.5 18.5 9.492294216 -0.735952058476361 0.314460743025883 0.192535980307514 0.0174187938368164 2.58760598428887e-06
Golden1H09 68.540007 -149.282492 7.96922043 7.625 1.75 17.375 6.385045922 -0.735943197486115 0.314456485161455 0.192532103206528 0.0174169172551404 -5.4288463813279e-07
Golden1H10 68.541306 -149.285939 7.96922043 7.625 1.75 17.375 6.385045922 -0.735934336495869 0.314452227297027 0.192528226105541 0.0174150406734643 -3.67337526051281e-06
Golden1H11 68.766113 -149.554721 7.726666667 7.375 0.5 18.5 9.492294216 -0.735942459070292 0.314456130339355 0.192531780114425 0.0174167608736138 -9.90097854758343e-07
Golden1H12 68.766113 -149.554721 7.726666667 7.375 0.5 18.5 9.492294216 -0.735917352931569 0.314444066389498 0.192520794991432 0.0174114438949953 -1.17232112660931e-05
Golden2A01 68.766113 -149.554721 7.726666667 7.375 0.5 18.5 9.492294216 -0.735941720654469 0.314455775517255 0.192531457022323 0.0174166044920871 -1.43731107143941e-06
Golden2A02 68.9085 -149.6879833 7.726666667 7.375 0.5 18.5 9.492294216 -0.735949104813068 0.314459323737483 0.192534687939105 0.0174181683107099 7.98753117675632e-07
Golden2A03 68.9085 -149.6879833 7.726666667 7.375 0.5 18.5 9.492294216 -0.735950581644714 0.314460033381683 0.192535334123309 0.0174184810737632 1.69317955092674e-06
Golden2A04 68.9085 -149.6879833 7.726666667 7.375 0.5 18.5 9.492294216 -0.632164522090916 0.261214991864553 0.0103895606712644 0.0258484166631042 2.49969538979045e-06
Golden2A05 68.99595 -149.75283 7.726666667 7.375 0.5 18.5 9.492294216 -0.0687257791460787 -0.027844695136884 -0.978470366748291 0.0716173050895699 3.10869262648561e-06
Golden2A06 68.99595 -149.75283 7.726666667 7.375 0.5 18.5 9.492294216 -0.517518725856496 0.202398819189478 -0.190806831705764 0.0351585685285496 -2.91720191988865e-06
Golden2A07 68.6707 -149.44415 7.726666667 7.375 0.5 18.5 9.492294216 -0.735945412733584 0.314457549627755 0.192533072482834 0.0174173863997203 7.9875501185489e-07
Golden2A08 69.26089 -150.23299 8.855062724 9 2.375 17 6.011513584 -0.229373854089519 0.057210570821576 -0.688264455002197 0.0588335016285171 -7.30234987526834e-06
Golden2A09 69.26104 -150.23253 8.855062724 9 2.375 17 6.011513584 -0.161761586260408 0.0198855277221722 -0.815177224771147 0.0640573939016345 -2.13277408256385e-06
Golden2A10 69.59872 -150.04155 8.855062724 9 2.375 17 6.011513584 -0.0762559628487481 -0.0239808051178208 -0.965226309044183 0.0709993348555737 -5.41449859602083e-06
Golden2A11 69.96434 -149.45775 8.855062724 9 2.375 17 6.011513584 -0.0580075306070549 -0.033342878851223 -0.997258074018359 0.0724827824501341 -5.35131100000419e-06
Golden2A12 69.15097 -148.83151 8.794444444 8.25 0.25 19 14.07453381 0.484716418550964 0.25586405490182 0.0551710962027824 -0.195416226744696 -3.46599491063415e-06
Golden2B01 68.766113 -149.554721 7.726666667 7.375 0.5 18.5 9.492294216 -0.735922521842331 0.314446550144198 0.192523056636147 0.0174125385656817 -8.59271874949219e-06
Golden2B02 68.9085 -149.6879833 7.726666667 7.375 0.5 18.5 9.492294216 -0.735951320060537 0.314460388203783 0.192535657215412 0.0174186374552898 2.1403927676078e-06
Golden2B03 68.9085 -149.6879833 7.726666667 7.375 0.5 18.5 9.492294216 -0.735942459070292 0.314456130339355 0.192531780114425 0.0174167608736138 -9.90097854758343e-07
Golden2B04 68.99595 -149.75283 7.726666667 7.375 0.5 18.5 9.492294216 -0.320232687170162 0.101185301617434 -0.537065256297785 0.0511872029869942 3.13239849564217e-06
Golden2B05 68.99595 -149.75283 7.726666667 7.375 0.5 18.5 9.492294216 -0.227886921901111 0.0538094495195951 -0.699132747763486 0.0586878148775888 1.66323965955506e-06
Golden2B06 68.99595 -149.75283 7.726666667 7.375 0.5 18.5 9.492294216 -0.490339137555496 0.18845469376198 -0.238518081368694 0.0373685980761426 1.64905249244729e-06
Golden2B07 68.77435 -149.57126 7.726666667 7.375 0.5 18.5 9.492294216 -0.735949843228891 0.314459678559583 0.192535011031207 0.0174183246922365 1.24596633430119e-06
Golden2B08 69.26194 -150.23973 8.855062724 9 2.375 17 6.011513584 -0.165713704837593 0.0219129305288606 -0.808246898490395 0.0637376516198102 5.36838183712307e-07
Golden2B09 69.60426 -150.03113 8.855062724 9 2.375 17 6.011513584 -0.136304813256609 0.0478922857313385 -0.731726132695592 0.070376242910872 -5.06525752508313e-07
Golden2B10 69.60088 -150.03502 8.855062724 9 2.375 17 6.011513584 -0.0701636970983949 -0.0271071712428072 -0.975953559716273 0.0715020139775446 3.99815693846728e-06
Golden2B11 69.96371 -149.459 8.855062724 9 2.375 17 6.011513584 -0.0758370862158029 -0.0241960365721432 -0.965975078344343 0.0710363903633799 -1.38809558498931e-06
Golden2B12 69.15113 -148.83179 8.794444444 8.25 0.25 19 14.07453381 0.527090426546041 0.282472835726674 0.0760107973584319 -0.0987585716596329 -4.27101931918528e-06
Golden2C01 68.766113 -149.554721 7.726666667 7.375 0.5 18.5 9.492294216 -0.735938028575353 0.314454001406754 0.192529841561813 0.0174158225844539 -3.6733771547337e-06
Golden2C02 68.9085 -149.6879833 7.726666667 7.375 0.5 18.5 9.492294216 -0.735944674317761 0.314457194805655 0.192532749390732 0.0174172300181937 3.51541795229338e-07
Golden2C03 68.9085 -149.6879833 7.726666667 7.375 0.5 18.5 9.492294216 -0.735945412733584 0.314457549627755 0.192533072482834 0.0174173863997203 7.9875501185489e-07
Golden2C04 68.99595 -149.75283 7.726666667 7.375 0.5 18.5 9.492294216 -0.0580088583495183 -0.0333427258103203 -0.997277146781309 0.0724874346252561 2.25136343340315e-06
Golden2C05 68.99595 -149.75283 7.726666667 7.375 0.5 18.5 9.492294216 -0.395260728570953 0.139677207442412 -0.405369823261375 0.0450885930644914 -2.94116713527026e-06
Golden2C06 68.99595 -149.75283 7.726666667 7.375 0.5 18.5 9.492294216 -0.411908525296803 0.148217462442154 -0.376173520088023 0.0437410109561855 2.36780866522124e-06
Golden2C07 68.77494 -149.57278 7.726666667 7.375 0.5 18.5 9.492294216 -0.735943197486115 0.314456485161455 0.192532103206528 0.0174169172551404 -5.4288463813279e-07
Golden2C08 69.25789 -150.23042 8.855062724 9 2.375 17 6.011513584 -0.0616767900225635 -0.0314602785921513 -0.990811532309678 0.0721832047781244 -6.25845653799695e-06
Golden2C09 69.60061 -150.03778 8.855062724 9 2.375 17 6.011513584 -0.058008677293778 -0.0333427466796397 -0.997274545950576 0.0724868002381971 9.09716740993272e-07
Golden2C10 69.60041 -150.03906 8.855062724 9 2.375 17 6.011513584 -0.0580087376456915 -0.0333427397231999 -0.997275412894153 0.0724870117005502 1.35693230524092e-06
Golden2C11 69.96281 -149.4623 8.855062724 9 2.375 17 6.011513584 -0.0802919057505873 -0.0219105661406135 -0.958155676984091 0.0706742978719363 -1.85073409840475e-06
Golden2C12 69.15072 -148.8371 8.794444444 8.25 0.25 19 14.07453381 0.491901401559796 0.260375940792468 0.0587052485328791 -0.179014514362709 -6.13409980231017e-06
Golden2D01 68.766113 -149.554721 7.726666667 7.375 0.5 18.5 9.492294216 -0.73593729015953 0.314453646584654 0.192529518469711 0.0174156662029273 -4.12059037135926e-06
Golden2D02 68.9085 -149.6879833 7.726666667 7.375 0.5 18.5 9.492294216 -0.735946151149407 0.314457904449855 0.192533395574936 0.0174175427812469 1.24596822848044e-06
Golden2D03 68.9085 -149.6879833 7.726666667 7.375 0.5 18.5 9.492294216 -0.735946151149407 0.314457904449855 0.192533395574936 0.0174175427812469 1.24596822848044e-06
Golden2D04 68.99595 -149.75283 7.726666667 7.375 0.5 18.5 9.492294216 -0.125683449320416 0.00137605510716562 -0.878511704362254 0.0669915729916613 2.91151407608159e-06
Golden2D05 68.99595 -149.75283 7.726666667 7.375 0.5 18.5 9.492294216 -0.552888619736981 0.220544271237725 -0.128742593895886 0.0322879800129465 2.32693555229924e-06
Golden2D06 68.99595 -149.75283 7.726666667 7.375 0.5 18.5 9.492294216 -0.735940982238646 0.314455420695155 0.192531133930221 0.0174164481105605 -1.88452428806496e-06
Golden2D07 68.77446 -149.571429 7.726666667 7.375 0.5 18.5 9.492294216 -0.735947627981054 0.314458614094055 0.19253404175914 0.0174178555443002 2.14039466184257e-06
Golden2D08 69.26206 -150.24077 8.855062724 9 2.375 17 6.011513584 -0.14423981131438 0.0108966094971877 -0.84591907729869 0.0654785678275183 -4.30820284059996e-06
Golden2D09 69.60081 -150.03648 8.855062724 9 2.375 17 6.011513584 -0.058009099757172 -0.0333426979845611 -0.99728061455562 0.072488280474668 4.04022569006068e-06
Golden2D10 69.5986 -150.04082 8.855062724 9 2.375 17 6.011513584 -0.130073611375758 0.00362845047598331 -0.870801888613038 0.0666338673259523 2.89630429423093e-06
Golden2D11 69.96148 -149.45947 8.855062724 9 2.375 17 6.011513584 -0.119784200987228 -0.00164984735886656 -0.888841828051324 0.0674655909160309 -3.32910511953444e-06
Golden2D12 69.15063 -148.83765 8.794444444 8.25 0.25 19 14.07453381 0.450080061173016 0.234114207709603 0.0381373501008551 -0.274411531649296 -5.3279093909786e-06
Golden2E01 68.766113 -149.554721 7.726666667 7.375 0.5 18.5 9.492294216 -0.735941720654469 0.314455775517255 0.192531457022323 0.0174166044920871 -1.43731107143941e-06
Golden2E02 68.9085 -149.6879833 7.726666667 7.375 0.5 18.5 9.492294216 -0.735950581644714 0.314460033381683 0.192535334123309 0.0174184810737632 1.69317955092674e-06
Golden2E03 68.9085 -149.6879833 7.726666667 7.375 0.5 18.5 9.492294216 -0.735947627981054 0.314458614094055 0.19253404175914 0.0174178555443002 2.14039466184257e-06
Golden2E04 68.99595 -149.75283 7.726666667 7.375 0.5 18.5 9.492294216 -0.399748080980909 0.141979104080039 -0.397504026607765 0.0447262378634488 -7.20612752358463e-07
Golden2E05 68.99595 -149.75283 7.726666667 7.375 0.5 18.5 9.492294216 -0.0793165197035224 -0.0224113744326976 -0.959884066408149 0.070757209125231 3.51924288682914e-06
Golden2E06 68.99595 -149.75283 7.726666667 7.375 0.5 18.5 9.492294216 -0.663768086905842 0.277428356296251 0.065849541972432 0.0232824782862631 2.83750940838212e-06
Golden2E07 69.26077 -150.23257 8.855062724 9 2.375 17 6.011513584 -0.311252799246995 0.0965787532418835 -0.552809837668996 0.0519131998884585 -1.75589721128355e-06
Golden2E08 69.26232 -150.2361 8.855062724 9 2.375 17 6.011513584 -0.146671124860957 0.012143220849581 -0.841681187773565 0.0652875571040244 4.6277171045217e-06
Golden2E09 69.60077 -150.03328 8.855062724 9 2.375 17 6.011513584 -0.0580089187014317 -0.0333427188538805 -0.997278013724887 0.0724876460876091 2.6985789976508e-06
Golden2E10 69.60365 -150.03038 8.855062724 9 2.375 17 6.011513584 -0.111565615552972 -0.00586657054682713 -0.903280444720481 0.0681364526316433 1.1715165281756e-06
Golden2E11 69.96348 -149.45569 8.855062724 9 2.375 17 6.011513584 -0.0580087376456915 -0.0333427397231999 -0.997275412894153 0.0724870117005502 1.35693230524092e-06
Golden2E12 69.15051 -148.83827 8.794444444 8.25 0.25 19 14.07453381 0.420075939206274 0.215273052170843 0.0233808156099735 -0.342861509135129 -3.60237160482169e-06
Golden2F01 68.766113 -149.554721 7.726666667 7.375 0.5 18.5 9.492294216 -0.735933598080046 0.314451872474927 0.192527903013439 0.0174148842919377 -4.12058847719388e-06
Golden2F02 68.9085 -149.6879833 7.726666667 7.375 0.5 18.5 9.492294216 -0.735950581644714 0.314460033381683 0.192535334123309 0.0174184810737632 1.69317955092674e-06
Golden2F03 68.9085 -149.6879833 7.726666667 7.375 0.5 18.5 9.492294216 -0.735950581644714 0.314460033381683 0.192535334123309 0.0174184810737632 1.69317955092674e-06
Golden2F04 68.99595 -149.75283 7.726666667 7.375 0.5 18.5 9.492294216 -0.0580088583495183 -0.0333427258103203 -0.997277146781309 0.0724874346252561 2.25136343340315e-06
Golden2F05 68.99595 -149.75283 7.726666667 7.375 0.5 18.5 9.492294216 -0.492363037622109 0.189493058845005 -0.234964090977159 0.037203758884795 7.47614133767005e-07
Golden2F06 68.66966 -149.44521 7.726666667 7.375 0.5 18.5 9.492294216 -0.735955012139653 0.314462162314283 0.192537272675922 0.017419419362923 4.37645885084659e-06
Golden2F07 69.26382 -150.24681 8.855062724 9 2.375 17 6.011513584 -0.2735983411915 0.0772615922604658 -0.618869978434312 0.0549663401508954 -1.10170782883084e-05
Golden2F08 69.26034 -150.23396 8.855062724 9 2.375 17 6.011513584 -0.121554746559269 -0.000741556207023736 -0.885736378778367 0.0673221978031485 -2.4408032638229e-06
Golden2F09 69.59925 -150.03986 8.855062724 9 2.375 17 6.011513584 -0.0409812154613307 0.0103277735544932 -0.863638177709408 0.079291588341708 -1.14018832765572e-06
Golden2F10 69.59872 -150.0399 8.855062724 9 2.375 17 6.011513584 -0.091952542420629 -0.0159288630721525 -0.937712086236103 0.0697318352414023 3.47550742382796e-06
Golden2F11 69.1507 -148.83626 8.794444444 8.25 0.25 19 14.07453381 0.498019029145038 0.264217695421259 0.0617153507681288 -0.165027775927957 -1.4170991893922e-05
Golden2F12 69.15025 -148.83867 8.794444444 8.25 0.25 19 14.07453381 0.515966663372614 0.275487855367331 0.0705415588526327 -0.124099538634674 -1.23442868197737e-05
Golden2G01 68.766113 -149.554721 7.726666667 7.375 0.5 18.5 9.492294216 -0.735938766991176 0.314454356228854 0.192530164653915 0.0174159789659806 -3.22616393805264e-06
Golden2G02 68.9085 -149.6879833 7.726666667 7.375 0.5 18.5 9.492294216 -0.735940982238646 0.314455420695155 0.192531133930221 0.0174164481105605 -1.88452428806496e-06
Golden2G03 68.9085 -149.6879833 7.726666667 7.375 0.5 18.5 9.492294216 -0.735946151149407 0.314457904449855 0.192533395574936 0.0174175427812469 1.24596822848044e-06
Golden2G04 68.99595 -149.75283 7.726666667 7.375 0.5 18.5 9.492294216 -0.0580088583495183 -0.0333427258103203 -0.997277146781309 0.0724874346252561 2.25136343340315e-06
Golden2G05 68.99595 -149.75283 7.726666667 7.375 0.5 18.5 9.492294216 -0.432955824301978 0.159015504751828 -0.339226686996655 0.0420295553234116 9.53283975757557e-07
Golden2G06 68.66911 -149.44209 7.726666667 7.375 0.5 18.5 9.492294216 -0.735952796892184 0.314461097847983 0.192536303399616 0.0174189502183431 3.03481920091442e-06
Golden2G07 69.26363 -150.24757 8.855062724 9 2.375 17 6.011513584 0.0134134695281736 0.00639315342471772 -0.884293365073613 0.0861868748186888 -7.35926579990831e-06
Golden2G08 69.26186 -150.24257 8.855062724 9 2.375 17 6.011513584 -0.149041409074092 0.0133596027177187 -0.837506628843193 0.0650917675156427 1.47342479328572e-07
Golden2G09 69.59846 -150.04021 8.855062724 9 2.375 17 6.011513584 -0.168110550665463 0.023143971495797 -0.803983889439227 0.0635304006646482 -1.64657027086346e-05
Golden2G12 69.149666 -148.83862 8.794444444 8.25 0.25 19 14.07453381 0.512622651476387 0.273387854077772 0.0688959890063448 -0.13174923142533 -6.09038268276074e-06
Golden2H01 68.766113 -149.554721 7.726666667 7.375 0.5 18.5 9.492294216 -0.735949104813068 0.314459323737483 0.192534687939105 0.0174181683107099 7.98753117675632e-07
Golden2H02 68.9085 -149.6879833 7.726666667 7.375 0.5 18.5 9.492294216 -0.640854770213679 0.265673259035111 0.0256384571093662 0.0251431351830745 1.57518878976526e-06
Golden2H03 68.9085 -149.6879833 7.726666667 7.375 0.5 18.5 9.492294216 -0.735949843228891 0.314459678559583 0.192535011031207 0.0174183246922365 1.24596633430119e-06
Golden2H04 68.99595 -149.75283 7.726666667 7.375 0.5 18.5 9.492294216 -0.112772555119735 -0.00524764101714306 -0.901172907629607 0.0680407899308138 3.8506435877661e-06
Golden2H05 68.99595 -149.75283 7.726666667 7.375 0.5 18.5 9.492294216 -0.559208115023428 0.223786372234995 -0.117650594416021 0.0317744152490525 1.85784146639056e-06
Golden2H06 68.67076 -149.44396 7.726666667 7.375 0.5 18.5 9.492294216 -0.735947627981054 0.314458614094055 0.19253404175914 0.0174178555443002 2.14039466184257e-06
Golden2H07 69.26304 -150.24745 8.855062724 9 2.375 17 6.011513584 -0.186775846704374 0.0327183475810261 -0.771283744089766 0.0620271539165693 1.35835186096389e-06
Golden2H08 69.26225 -150.24673 8.855062724 9 2.375 17 6.011513584 -0.0580092808132805 -0.0333426771160145 -0.997283215390592 0.0724889148650834 3.14580440496925e-06
Golden2H09 69.59925 -150.03986 8.855062724 9 2.375 17 6.011513584 -0.0580074099032281 -0.0333428927641027 -0.997256340131204 0.0724823595254281 -6.24574212827744e-06
Golden2H10 69.96524 -149.45848 8.855062724 9 2.375 17 6.011513584 -0.058007832366622 -0.0333428440690241 -0.997262408736248 0.072483839761899 -3.11523317943208e-06
Golden2H11 69.15064 -148.83374 8.794444444 8.25 0.25 19 14.07453381 0.480423965363775 0.253168689049018 0.0530606805035483 -0.205193451262683 -6.60552653834745e-06
Golden3A01 69.15072 -148.83725 8.794444444 8.25 0.25 19 14.07453381 0.503258900498211 0.267507749600317 0.0642898512543322 -0.153131138595354 5.98033134194265e-07
Golden3A02 68.619633 -149.188117 10.44864286 10.625 1.25 20.75 12.45157584 0.662818748057382 0.367703355991831 0.142761355583712 0.210819950023573 9.34659900864165e-07
Golden3A03 68.637973 -149.216459 10.44864286 10.625 1.25 20.75 12.45157584 0.662816105625546 0.367701723689093 0.142760262349313 0.210818550745387 1.38187446802052e-06
Golden3A04 68.640136 -149.216977 10.44864286 10.625 1.25 20.75 12.45157584 0.662816766233597 0.367702131764971 0.142760535658973 0.210818900564094 1.82908782059288e-06
Golden3A05 68.764232 -148.904292 2.805611559 2.625 1.875 5.125 0.415161099 0.662813463193341 0.367700091385582 0.142759169110675 0.210817151470558 -4.06978942379954e-07
Golden3A06 68.764232 -148.904292 2.805611559 2.625 1.875 5.125 0.415161099 0.662816766233597 0.367702131764971 0.142760535658973 0.210818900564094 1.82908782059288e-06
Golden3A07 68.764232 -148.904292 2.805611559 2.625 1.875 5.125 0.415161099 0.662820069273485 0.367704172143587 0.142761902203032 0.210820649660988 1.8290866060644e-06
Golden3A08 68.862886 -148.844078 2.805611559 2.625 1.875 5.125 0.415161099 0.548572596184286 0.295962474169538 0.0865750371474053 -0.0497738251743618 2.03527059169928e-06
Golden3A09 68.862886 -148.844078 2.805611559 2.625 1.875 5.125 0.415161099 0.516388808970088 0.275752617635048 0.0707466948918894 -0.123192159762562 2.41457390384725e-06
Golden3A10 68.63203 -149.20679 10.44864286 10.625 1.25 20.75 12.45157584 0.662821390489587 0.367704988295343 0.142762448822351 0.210821349298402 2.72351331126464e-06
Golden3A11 68.663442 -149.184539 10.44864286 10.625 1.25 20.75 12.45157584 0.662804875289045 0.367694786399944 0.14275561608934 0.210812603824006 -3.98468454844425e-06
Golden3A12 69.94943 -148.61163 8.794444444 8.25 0.25 19 14.07453381 0.122146695663454 0.0281882461385445 -0.12314178167851 -1.02245244957819 6.88397070958136e-07
Golden3B01 69.73341 -148.69218 8.794444444 8.25 0.25 19 14.07453381 0.449737627501858 0.233899061610042 0.0379680638938511 -0.275212294238877 3.79034749697915e-08
Golden3B02 68.619867 -149.18872 10.44864286 10.625 1.25 20.75 12.45157584 0.662760614551093 0.367667445319225 0.142737304359105 0.210789165957187 -2.50037072617865e-05
Golden3B03 68.638246 -149.216095 10.44864286 10.625 1.25 20.75 12.45157584 0.662818748057382 0.367703355991831 0.142761355583712 0.210819950023573 9.34659900864165e-07
Golden3B04 68.640373 -149.217581 10.44864286 10.625 1.25 20.75 12.45157584 0.662817426841648 0.367702539840849 0.142760808968633 0.210819250382802 2.27630117322075e-06
Golden3B05 68.764232 -148.904292 2.805611559 2.625 1.875 5.125 0.415161099 0.613575812800353 0.336781264600193 0.118543764029651 0.0985000199223888 1.72520062001469e-06
Golden3B06 68.764232 -148.904292 2.805611559 2.625 1.875 5.125 0.415161099 0.662808838936984 0.367697234854438 0.142757255943058 0.210814702739606 -3.537472410442e-06
Golden3B07 68.764232 -148.904292 2.805611559 2.625 1.875 5.125 0.415161099 0.662817426841648 0.367702539840849 0.142760808968633 0.210819250382802 2.27630117322075e-06
Golden3B08 68.862886 -148.844078 2.805611559 2.625 1.875 5.125 0.415161099 0.496909048637481 0.263520304750726 0.0611665723574605 -0.16762444122403 1.92626408583585e-06
Golden3B09 68.862886 -148.844078 2.805611559 2.625 1.875 5.125 0.415161099 0.49385243464821 0.261600943866159 0.0596636346809773 -0.174589652049999 1.47261155060419e-06
Golden3B10 68.663906 -149.17732 10.44864286 10.625 1.25 20.75 12.45157584 0.662822051097638 0.36770539637122 0.14276272213201 0.21082169911711 3.170726663837e-06
Golden3B11 68.8495 -148.85346 2.805611559 2.625 1.875 5.125 0.415161099 0.481230488073718 0.253675010093687 0.0534562979601704 -0.20337690923903 1.0434624055089e-07
Golden3B12 69.94989 -148.61191 8.794444444 8.25 0.25 19 14.07453381 0.122146695663454 0.0281882461385445 -0.12314178167851 -1.02245244957819 6.88397070958136e-07
Golden3C01 69.73426 -148.69275 8.794444444 8.25 0.25 19 14.07453381 0.496257002071362 0.263110905996316 0.0608463075503175 -0.169102506711466 5.83260722733514e-07
Golden3C02 68.620091 -149.190344 10.44864286 10.625 1.25 20.75 12.45157584 0.662818748057382 0.367703355991831 0.142761355583712 0.210819950023573 9.34659900864165e-07
Golden3C03 68.638557 -149.215864 10.44864286 10.625 1.25 20.75 12.45157584 0.662817426841648 0.367702539840849 0.142760808968633 0.210819250382802 2.27630117322075e-06
Golden3C04 68.640677 -149.217629 10.44864286 10.625 1.25 20.75 12.45157584 0.662815445017495 0.367701315613216 0.142759989039654 0.21081820092668 9.34661115503665e-07
Golden3C05 68.764232 -148.904292 2.805611559 2.625 1.875 5.125 0.415161099 0.662814784409444 0.367700907537338 0.142759715729994 0.210817851107972 4.87447762820281e-07
Golden3C06 68.764232 -148.904292 2.805611559 2.625 1.875 5.125 0.415161099 0.662817426841648 0.367702539840849 0.142760808968633 0.210819250382802 2.27630117322075e-06
Golden3C07 68.764232 -148.904292 2.805611559 2.625 1.875 5.125 0.415161099 0.662820069273485 0.367704172143587 0.142761902203032 0.210820649660988 1.8290866060644e-06
Golden3C08 68.862886 -148.844078 2.805611559 2.625 1.875 5.125 0.415161099 0.523386802164963 0.28014701570089 0.0741883695755383 -0.107228542469845 1.98212611735027e-06
Golden3C09 68.862886 -148.844078 2.805611559 2.625 1.875 5.125 0.415161099 0.47398145445293 0.249122917113836 0.0498907486037678 -0.219922407349062 1.87789208221101e-06
Golden3C10 68.6628 -149.18804 10.44864286 10.625 1.25 20.75 12.45157584 0.662818748057382 0.367703355991831 0.142761355583712 0.210819950023573 9.34659900864165e-07
Golden3C11 68.85123 -148.85411 2.805611559 2.625 1.875 5.125 0.415161099 0.479252585691402 0.252432911588189 0.0524829953617665 -0.207901242598 2.78343688671356e-06
Golden3C12 69.94352 -148.61108 8.794444444 8.25 0.25 19 14.07453381 0.41835928746613 0.214194972296133 0.0225357385610117 -0.346795713527888 1.3133300150181e-06
Golden3D01 69.7319 -148.68997 8.794444444 8.25 0.25 19 14.07453381 0.478799303051128 0.252148340189398 0.052260586095521 -0.208923612433773 5.4642895253032e-07
Golden3D02 68.620224 -149.19112 10.44864286 10.625 1.25 20.75 12.45157584 0.66281280258529 0.367699683309704 0.142758895801016 0.21081680165185 -8.54192294896805e-07
Golden3D03 68.638773 -149.216478 10.44864286 10.625 1.25 20.75 12.45157584 0.662816105625546 0.367701723689093 0.142760262349313 0.210818550745387 1.38187446802052e-06
Golden3D04 68.641005 -149.217332 10.44864286 10.625 1.25 20.75 12.45157584 0.662820729881536 0.367704580219465 0.142762175512691 0.210820999479695 2.27629995858125e-06
Golden3D05 68.764232 -148.904292 2.805611559 2.625 1.875 5.125 0.415161099 0.662814784409444 0.367700907537338 0.142759715729994 0.210817851107972 4.87447762820281e-07
Golden3D06 68.764232 -148.904292 2.805611559 2.625 1.875 5.125 0.415161099 0.560816544071326 0.303651043585415 0.0925964735666985 -0.0218487850280945 1.16667043312257e-06
Golden3D07 68.764232 -148.904292 2.805611559 2.625 1.875 5.125 0.415161099 0.662819408665433 0.367703764067709 0.142761628893372 0.21082029984228 1.38187325338102e-06
Golden3D08 68.862886 -148.844078 2.805611559 2.625 1.875 5.125 0.415161099 0.51670648402383 0.275952149024663 0.0709032889919959 -0.122459442031223 1.52082839141587e-06
Golden3D09 68.862886 -148.844078 2.805611559 2.625 1.875 5.125 0.415161099 0.518968586085107 0.277372602728419 0.0720155361393652 -0.117305360170891 1.52559272846575e-06
Golden3D10 68.6638 -149.18279 10.44864286 10.625 1.25 20.75 12.45157584 0.662787699480084 0.367684176427895 0.14274851004243 0.210803508534258 -1.33761637382407e-05
Golden3D11 68.84934 -148.85334 2.805611559 2.625 1.875 5.125 0.415161099 0.516155497143458 0.275606122930148 0.0706320549570758 -0.123722031235149 1.51965775131713e-06
Golden3D12 69.95148 -148.60971 8.794444444 8.25 0.25 19 14.07453381 0.122147414687469 0.0281886571307565 -0.123141737535498 -1.02245775166728 1.13560236350563e-06
Golden3E01 68.6715 -149.1281 10.44864286 10.625 1.25 20.75 12.45157584 0.662816105625546 0.367701723689093 0.142760262349313 0.210818550745387 1.38187446802052e-06
Golden3E02 68.636745 -149.216692 10.44864286 10.625 1.25 20.75 12.45157584 0.662820729881536 0.367704580219465 0.142762175512691 0.210820999479695 2.27629995858125e-06
Golden3E03 68.639007 -149.216977 10.44864286 10.625 1.25 20.75 12.45157584 0.662814123801393 0.36770049946146 0.142759442420335 0.210817501289265 4.02344103034302e-08
Golden3E04 68.641327 -149.217341 10.44864286 10.625 1.25 20.75 12.45157584 0.662819408665433 0.367703764067709 0.142761628893372 0.21082029984228 1.38187325338102e-06
Golden3E05 68.764232 -148.904292 2.805611559 2.625 1.875 5.125 0.415161099 0.59173174174741 0.323064255284078 0.107800663769436 0.0486701048194106 7.84682502530387e-07
Golden3E06 68.764232 -148.904292 2.805611559 2.625 1.875 5.125 0.415161099 0.662817426841648 0.367702539840849 0.142760808968633 0.210819250382802 2.27630117322075e-06
Golden3E07 68.862886 -148.844078 2.805611559 2.625 1.875 5.125 0.415161099 0.488386742806626 0.258168707488343 0.0569751869515496 -0.187066180901271 2.80270787858528e-06
Golden3E08 68.862886 -148.844078 2.805611559 2.625 1.875 5.125 0.415161099 0.499689270406639 0.265266138847964 0.0625338378387787 -0.161283897389505 2.3793416795842e-06
Golden3E09 68.862886 -148.844078 2.805611559 2.625 1.875 5.125 0.415161099 0.498784929629771 0.264698419940292 0.0620903196337086 -0.16331893482885 -3.88351733103531e-06
Golden3E10 68.66276 -149.18876 10.44864286 10.625 1.25 20.75 12.45157584 0.662819408665433 0.367703764067709 0.142761628893372 0.21082029984228 1.38187325338102e-06
Golden3E11 68.85116 -148.85546 2.805611559 2.625 1.875 5.125 0.415161099 0.603723450835301 0.330594444799184 0.113698151945702 0.0760221009623893 1.25719423732518e-06
Golden3E12 69.94831 -148.61133 8.794444444 8.25 0.25 19 14.07453381 0.264005196312272 0.117268274472624 -0.0533759283429261 -0.698880542898082 1.88210194360106e-06
Golden3F01 68.6713 -149.1313 10.44864286 10.625 1.25 20.75 12.45157584 0.662815445017495 0.367701315613216 0.142759989039654 0.21081820092668 9.34661115503665e-07
Golden3F02 68.63716 -149.21668 10.44864286 10.625 1.25 20.75 12.45157584 0.662820729881536 0.367704580219465 0.142762175512691 0.210820999479695 2.27629995858125e-06
Golden3F03 68.639318 -149.217092 10.44864286 10.625 1.25 20.75 12.45157584 0.662819408665433 0.367703764067709 0.142761628893372 0.21082029984228 1.38187325338102e-06
Golden3F04 68.641648 -149.217351 10.44864286 10.625 1.25 20.75 12.45157584 0.662820069273485 0.367704172143587 0.142761902203032 0.210820649660988 1.8290866060644e-06
Golden3F05 68.764232 -148.904292 2.805611559 2.625 1.875 5.125 0.415161099 0.563813857552597 0.305533247741533 0.0940708661162304 -0.0150049546075488 7.2579030649389e-07
Golden3F06 68.764232 -148.904292 2.805611559 2.625 1.875 5.125 0.415161099 0.662816766233597 0.367702131764971 0.142760535658973 0.210818900564094 1.82908782059288e-06
Golden3F07 68.862886 -148.844078 2.805611559 2.625 1.875 5.125 0.415161099 0.512713614773807 0.273444846190486 0.0689397448943711 -0.131563727253247 1.70768469809346e-07
Golden3F08 68.862886 -148.844078 2.805611559 2.625 1.875 5.125 0.415161099 0.503168287698047 0.267450774988701 0.0642447203833773 -0.153350554227629 3.28110553170224e-06
Golden3F09 68.862886 -148.844078 2.805611559 2.625 1.875 5.125 0.415161099 0.442114380588563 0.229111981313698 0.0342184759026648 -0.29261137488956 1.81065981180728e-06
Golden3F10 68.6626 -149.18894 10.44864286 10.625 1.25 20.75 12.45157584 0.662785057048248 0.367682544125157 0.142747416808031 0.210802109256072 -1.29289491710149e-05
Golden3F11 68.851297 -148.854231 2.805611559 2.625 1.875 5.125 0.415161099 0.51650748042319 0.275827184671382 0.070805418735348 -0.122913370318736 1.52040853911017e-06
Golden3F12 69.94739 -148.61137 8.794444444 8.25 0.25 19 14.07453381 0.427058855249006 0.219658070326483 0.0268157458508747 -0.32691724149834 -7.61253868830636e-06
Golden3G01 68.6685 -149.1524 10.44864286 10.625 1.25 20.75 12.45157584 0.662816766233597 0.367702131764971 0.142760535658973 0.210818900564094 1.82908782059288e-06
Golden3G02 68.637376 -149.217408 10.44864286 10.625 1.25 20.75 12.45157584 0.662816766233597 0.367702131764971 0.142760535658973 0.210818900564094 1.82908782059288e-06
Golden3G03 68.639629 -149.217159 10.44864286 10.625 1.25 20.75 12.45157584 0.662806857113199 0.367696010627577 0.142756436018319 0.210813653280128 -2.64304449072716e-06
Golden3G04 68.641934 -149.217514 10.44864286 10.625 1.25 20.75 12.45157584 0.662817426841648 0.367702539840849 0.142760808968633 0.210819250382802 2.27630117322075e-06
Golden3G05 68.764232 -148.904292 2.805611559 2.625 1.875 5.125 0.415161099 0.56894432699962 0.308754886601181 0.0965937288857702 -0.0033092682853418 1.18381820451985e-06
Golden3G06 68.764232 -148.904292 2.805611559 2.625 1.875 5.125 0.415161099 0.662816766233597 0.367702131764971 0.142760535658973 0.210818900564094 1.82908782059288e-06
Golden3G07 68.862886 -148.844078 2.805611559 2.625 1.875 5.125 0.415161099 0.547436495456381 0.295249025710215 0.0860160432817975 -0.0523710622236416 2.03286549453618e-06
Golden3G08 68.862886 -148.844078 2.805611559 2.625 1.875 5.125 0.415161099 0.492866907836888 0.260982034823552 0.0591785901271747 -0.176845743246229 2.36494804789489e-06
Golden3G09 68.862886 -148.844078 2.805611559 2.625 1.875 5.125 0.415161099 0.500471949806412 0.265757703580855 0.0629193796358511 -0.159484717075107 -7.49482573780824e-07
Golden3G10 68.66268 -149.18919 10.44864286 10.625 1.25 20.75 12.45157584 0.655478566875978 0.363094074154097 0.139151340778433 0.194074643054227 1.81359770752565e-06
Golden3G11 69.94905 -148.6115 8.794444444 8.25 0.25 19 14.07453381 0.354439354307245 0.174056423189364 -0.00890027953926675 -0.492599740241793 2.07289742697181e-06
Golden3G12 69.9525 -148.6056 8.794444444 8.25 0.25 19 14.07453381 0.322659405939223 0.15410022487551 -0.0245294974828027 -0.565085345927426 2.1700113611578e-07
Golden3H01 68.62005 -149.189419 10.44864286 10.625 1.25 20.75 12.45157584 0.662814123801393 0.36770049946146 0.142759442420335 0.210817501289265 4.02344103034302e-08
Golden3H02 68.637715 -149.217207 10.44864286 10.625 1.25 20.75 12.45157584 0.662820069273485 0.367704172143587 0.142761902203032 0.210820649660988 1.8290866060644e-06
Golden3H03 68.639839 -149.216823 10.44864286 10.625 1.25 20.75 12.45157584 0.662817426841648 0.367702539840849 0.142760808968633 0.210819250382802 2.27630117322075e-06
Golden3H04 68.642242 -149.217715 10.44864286 10.625 1.25 20.75 12.45157584 0.662819408665433 0.367703764067709 0.142761628893372 0.21082029984228 1.38187325338102e-06
Golden3H05 68.764232 -148.904292 2.805611559 2.625 1.875 5.125 0.415161099 0.662817426841648 0.367702539840849 0.142760808968633 0.210819250382802 2.27630117322075e-06
Golden3H06 68.764232 -148.904292 2.805611559 2.625 1.875 5.125 0.415161099 0.662787038872033 0.367683768352017 0.14274823673277 0.210803158715551 -1.38233770908686e-05
Golden3H07 68.862886 -148.844078 2.805611559 2.625 1.875 5.125 0.415161099 0.512795931750599 0.273496530400454 0.0689801769234705 -0.131377118816565 6.1815409875543e-07
Golden3H08 68.862886 -148.844078 2.805611559 2.625 1.875 5.125 0.415161099 0.507226531780861 0.269999163728453 0.0662406738093191 -0.144091363499918 2.39524358502941e-06
Golden3H09 68.862886 -148.844078 2.805611559 2.625 1.875 5.125 0.415161099 0.477302087363808 0.251208122761539 0.0515239437958297 -0.212345711687027 9.90473943918158e-07
Golden3H11 69.9508 -148.6118 8.794444444 8.25 0.25 19 14.07453381 0.311383376101252 0.14701943279119 -0.0300751167325977 -0.590807187900909 6.40423239328669e-07
Golden3H12 69.95339 -148.6114 8.794444444 8.25 0.25 19 14.07453381 0.467420827884773 0.245003231045542 0.0466646872427297 -0.234876818690772 7.52110017321339e-08
Golden4A01 69.95113 -148.61078 8.794444444 8.25 0.25 19 14.07453381 0.452351891096229 0.235540648470198 0.0392534530107202 -0.269256087052001 4.90622751592174e-07
Golden4A02 69.9503 -148.61232 8.794444444 8.25 0.25 19 14.07453381 0.122146216313865 0.0281879721432213 -0.12314181111001 -1.0224489148499 -1.10045177581508e-06
Golden4A03 68.556594 -149.574373 9.29469086 9 2 16 7.116192372 0.0206507450144791 -0.878490194204075 0.132639622976612 0.0270496809240396 -1.27191812637761e-07
Golden4A04 68.556594 -149.574373 9.29469086 9 2 16 7.116192372 0.0206508366277613 -0.878494385966454 0.132640938917513 0.0270505110046921 2.10887634949364e-06
Golden4A05 68.605367 -149.736093 8.458291331 8.125 1.125 15.75 7.647271623 0.0206509282406752 -0.878498577729605 0.132642254854175 0.0270513410887011 2.10887653412373e-06
Golden4A06 68.605367 -149.736093 8.458291331 8.125 1.125 15.75 7.647271623 0.0206508366277613 -0.878494385966454 0.132640938917513 0.0270505110046921 2.10887634949364e-06
Golden4A07 68.605367 -149.736093 8.458291331 8.125 1.125 15.75 7.647271623 0.0456088357848536 -0.830064026420511 0.133035292110057 0.0341933756033686 1.65078885649983e-06
Golden4A08 68.623432 -149.792559 8.458291331 8.125 1.125 15.75 7.647271623 0.0206508366277613 -0.878494385966454 0.132640938917513 0.0270505110046921 2.10887634949364e-06
Golden4A09 68.62373 -149.7778 8.458291331 8.125 1.125 15.75 7.647271623 0.0206507999824484 -0.878492709261502 0.132640412541153 0.0270501789724311 1.21444908468549e-06
Golden4A10 68.53717 -149.248205 7.96922043 7.625 1.75 17.375 6.385045922 -0.735951320060537 0.314460388203783 0.192535657215412 0.0174186374552898 2.1403927676078e-06
Golden4A11 68.53717 -149.248205 7.96922043 7.625 1.75 17.375 6.385045922 -0.735949843228891 0.314459678559583 0.192535011031207 0.0174183246922365 1.24596633430119e-06
Golden4A12 68.53717 -149.248205 7.96922043 7.625 1.75 17.375 6.385045922 -0.735910707188793 0.31444087299137 0.192517887166752 0.0174100364578991 -1.35120622385132e-05
Golden4B01 69.94632 -148.61234 8.794444444 8.25 0.25 19 14.07453381 0.398231204540916 0.201555572115006 0.0126369763616469 -0.392702194200399 1.27087252602132e-06
Golden4B02 69.95389 -148.61154 8.794444444 8.25 0.25 19 14.07453381 0.433484525823746 0.223692936466083 0.0299748682988791 -0.312283392856328 -8.90810786746687e-07
Golden4B03 68.563736 -149.650008 9.29469086 9 2 16 7.116192372 0.0206496090112528 -0.878438216347494 0.132623305326394 0.027039387910522 -1.8910165113184e-05
Golden4B04 68.556594 -149.574373 9.29469086 9 2 16 7.116192372 0.0206509465633317 -0.87849941608208 0.132642518042355 0.0270515071048316 2.55609016658331e-06
Golden4B05 68.605367 -149.736093 8.458291331 8.125 1.125 15.75 7.647271623 0.0206507633371355 -0.878491032556551 0.132639886164792 0.0270498469401701 3.20021819821825e-07
Golden4B06 68.605367 -149.736093 8.458291331 8.125 1.125 15.75 7.647271623 0.0206508549504177 -0.878495224318929 0.132641202105694 0.0270506770208227 2.55608998195322e-06
Golden4B07 68.605367 -149.736093 8.458291331 8.125 1.125 15.75 7.647271623 0.0206509282406752 -0.878498577729605 0.132642254854175 0.0270513410887011 2.10887653412373e-06
Golden4B08 68.623432 -149.792559 8.458291331 8.125 1.125 15.75 7.647271623 0.0206508183051048 -0.878493547613978 0.132640675729333 0.0270503449885616 1.66166271708956e-06
Golden4B09 68.62373 -149.7778 8.458291331 8.125 1.125 15.75 7.647271623 0.0206509099180188 -0.878497739377129 0.132641991665995 0.0270511750725706 1.66166290166414e-06
Golden4B10 68.53717 -149.248205 7.96922043 7.625 1.75 17.375 6.385045922 -0.735952796892184 0.314461097847983 0.192536303399616 0.0174189502183431 3.03481920091442e-06
Golden4B11 68.53717 -149.248205 7.96922043 7.625 1.75 17.375 6.385045922 -0.735949843228891 0.314459678559583 0.192535011031207 0.0174183246922365 1.24596633430119e-06
Golden4B12 68.53717 -149.248205 7.96922043 7.625 1.75 17.375 6.385045922 -0.735918091347393 0.314444421211598 0.192521118083534 0.0174116002765219 -1.1275998049412e-05
Golden4C01 69.95482 -148.61102 8.794444444 8.25 0.25 19 14.07453381 0.122146336151263 0.028188040642052 -0.123141803752135 -1.02244979853197 -6.53239564107899e-07
Golden4C02 68.556594 -149.574373 9.29469086 9 2 16 7.116192372 0.0206507633371355 -0.878491032556551 0.132639886164792 0.0270498469401701 3.20021819821825e-07
Golden4C03 68.563736 -149.650008 9.29469086 9 2 16 7.116192372 0.0206509099180188 -0.878497739377129 0.132641991665995 0.0270511750725706 1.66166290166414e-06
Golden4C04 68.556594 -149.574373 9.29469086 9 2 16 7.116192372 0.0206509099180188 -0.878497739377129 0.132641991665995 0.0270511750725706 1.66166290166414e-06
Golden4C05 68.605367 -149.736093 8.458291331 8.125 1.125 15.75 7.647271623 0.0206508549504177 -0.878495224318929 0.132641202105694 0.0270506770208227 2.55608998195322e-06
Golden4C06 68.605367 -149.736093 8.458291331 8.125 1.125 15.75 7.647271623 0.0206509282406752 -0.878498577729605 0.132642254854175 0.0270513410887011 2.10887653412373e-06
Golden4C07 68.623432 -149.792559 8.458291331 8.125 1.125 15.75 7.647271623 0.0206509099180188 -0.878497739377129 0.132641991665995 0.0270511750725706 1.66166290166414e-06
Golden4C08 68.62373 -149.7778 8.458291331 8.125 1.125 15.75 7.647271623 0.0206508366277613 -0.878494385966454 0.132640938917513 0.0270505110046921 2.10887634949364e-06
Golden4C09 68.62373 -149.7778 8.458291331 8.125 1.125 15.75 7.647271623 0.0843707776770062 -0.754842913644986 0.133646386576202 0.0452860271317143 2.08111410998635e-06
Golden4C10 68.53717 -149.248205 7.96922043 7.625 1.75 17.375 6.385045922 -0.735952058476361 0.314460743025883 0.192535980307514 0.0174187938368164 2.58760598428887e-06
Golden4C11 68.53717 -149.248205 7.96922043 7.625 1.75 17.375 6.385045922 -0.735950581644714 0.314460033381683 0.192535334123309 0.0174184810737632 1.69317955092674e-06
Golden4C12 68.53717 -149.248205 7.96922043 7.625 1.75 17.375 6.385045922 -0.73594688956523 0.314458259271955 0.192533718667038 0.0174176991627735 1.69318144516151e-06
Golden4D01 69.94784 -148.61153 8.794444444 8.25 0.25 19 14.07453381 0.305677526678468 0.14343648395358 -0.0328809522007065 -0.603815319054406 1.8118142053325e-07
Golden4D02 68.556594 -149.574373 9.29469086 9 2 16 7.116192372 0.0206508183051048 -0.878493547613978 0.132640675729333 0.0270503449885616 1.66166271708956e-06
Golden4D03 68.563736 -149.650008 9.29469086 9 2 16 7.116192372 0.0206508549504177 -0.878495224318929 0.132641202105694 0.0270506770208227 2.55608998195322e-06
Golden4D04 68.556594 -149.574373 9.29469086 9 2 16 7.116192372 0.0206508366277613 -0.878494385966454 0.132640938917513 0.0270505110046921 2.10887634949364e-06
Golden4D05 68.605367 -149.736093 8.458291331 8.125 1.125 15.75 7.647271623 0.0206508915953623 -0.878496901024653 0.132641728477815 0.0270510090564401 1.21444926931558e-06
Golden4D06 68.605367 -149.736093 8.458291331 8.125 1.125 15.75 7.647271623 0.0206508915953623 -0.878496901024653 0.132641728477815 0.0270510090564401 1.21444926931558e-06
Golden4D07 68.623432 -149.792559 8.458291331 8.125 1.125 15.75 7.647271623 0.0206507083691662 -0.878488517499124 0.132639096600252 0.0270493488917786 -1.02161907744591e-06
Golden4D08 68.62373 -149.7778 8.458291331 8.125 1.125 15.75 7.647271623 0.0206507633371355 -0.878491032556551 0.132639886164792 0.0270498469401701 3.20021819821825e-07
Golden4D09 68.62373 -149.7778 8.458291331 8.125 1.125 15.75 7.647271623 0.0206507633371355 -0.878491032556551 0.132639886164792 0.0270498469401701 3.20021819821825e-07
Golden4D10 68.53717 -149.248205 7.96922043 7.625 1.75 17.375 6.385045922 -0.735935074911692 0.314452582119127 0.192528549197644 0.017415197054991 -3.22616204383175e-06
Golden4D11 68.53717 -149.248205 7.96922043 7.625 1.75 17.375 6.385045922 -0.735949843228891 0.314459678559583 0.192535011031207 0.0174183246922365 1.24596633430119e-06
Golden4D12 68.53717 -149.248205 7.96922043 7.625 1.75 17.375 6.385045922 -0.735934336495869 0.314452227297027 0.192528226105541 0.0174150406734643 -3.67337526051281e-06
Golden4E01 69.95224 -148.60872 8.794444444 8.25 0.25 19 14.07453381 0.346074415741779 0.168803705513035 -0.013013807288995 -0.511672111054807 1.16083357667995e-06
Golden4E02 68.556594 -149.574373 9.29469086 9 2 16 7.116192372 0.020651001531301 -0.878501931139507 0.132643307606896 0.0270520051532232 3.89773106385105e-06
Golden4E03 68.563736 -149.650008 9.29469086 9 2 16 7.116192372 0.0206506900465098 -0.878487679146648 0.132638833412071 0.027049182875648 -1.4688327099055e-06
Golden4E04 68.556594 -149.574373 9.29469086 9 2 16 7.116192372 0.0206508915953623 -0.878496901024653 0.132641728477815 0.0270510090564401 1.21444926931558e-06
Golden4E05 68.605367 -149.736093 8.458291331 8.125 1.125 15.75 7.647271623 0.020650781659792 -0.878491870909027 0.132640149352973 0.0270500129563006 7.67235452225901e-07
Golden4E06 68.605367 -149.736093 8.458291331 8.125 1.125 15.75 7.647271623 0.020650177012866 -0.878464205275785 0.132631464151503 0.0270445344172808 -9.51867846293863e-06
Golden4E08 68.62373 -149.7778 8.458291331 8.125 1.125 15.75 7.647271623 0.0206509099180188 -0.878497739377129 0.132641991665995 0.0270511750725706 1.66166290166414e-06
Golden4E09 68.62373 -149.7778 8.458291331 8.125 1.125 15.75 7.647271623 0.0206508915953623 -0.878496901024653 0.132641728477815 0.0270510090564401 1.21444926931558e-06
Golden4E10 68.53717 -149.248205 7.96922043 7.625 1.75 17.375 6.385045922 -0.735943935901938 0.314456839983555 0.19253242629863 0.017417073636667 -9.56714214517262e-08
Golden4E11 68.53717 -149.248205 7.96922043 7.625 1.75 17.375 6.385045922 -0.735951320060537 0.314460388203783 0.192535657215412 0.0174186374552898 2.1403927676078e-06
Golden4F01 69.05501 -148.61018 8.794444444 8.25 0.25 19 14.07453381 0.3191951707143 0.151924891396368 -0.0262329554468252 -0.57298150002456 2.09700571768279e-07
Golden4F02 68.556594 -149.574373 9.29469086 9 2 16 7.116192372 0.0206508549504177 -0.878495224318929 0.132641202105694 0.0270506770208227 2.55608998195322e-06
Golden4F03 68.556594 -149.574373 9.29469086 9 2 16 7.116192372 0.0206509099180188 -0.878497739377129 0.132641991665995 0.0270511750725706 1.66166290166414e-06
Golden4F04 68.556594 -149.574373 9.29469086 9 2 16 7.116192372 0.0206509099180188 -0.878497739377129 0.132641991665995 0.0270511750725706 1.66166290166414e-06
Golden4F05 68.605367 -149.736093 8.458291331 8.125 1.125 15.75 7.647271623 0.0206506900465098 -0.878487679146648 0.132638833412071 0.027049182875648 -1.4688327099055e-06
Golden4F06 68.605367 -149.736093 8.458291331 8.125 1.125 15.75 7.647271623 0.0206507266918226 -0.8784893558516 0.132639359788432 0.0270495149079091 -5.74405445041837e-07
Golden4F07 68.623432 -149.792559 8.458291331 8.125 1.125 15.75 7.647271623 0.0206508549504177 -0.878495224318929 0.132641202105694 0.0270506770208227 2.55608998195322e-06
Golden4F08 68.62373 -149.7778 8.458291331 8.125 1.125 15.75 7.647271623 0.0206507633371355 -0.878491032556551 0.132639886164792 0.0270498469401701 3.20021819821825e-07
Golden4F09 68.62373 -149.7778 8.458291331 8.125 1.125 15.75 7.647271623 0.0206508915953623 -0.878496901024653 0.132641728477815 0.0270510090564401 1.21444926931558e-06
Golden4F10 68.53717 -149.248205 7.96922043 7.625 1.75 17.375 6.385045922 -0.735950581644714 0.314460033381683 0.192535334123309 0.0174184810737632 1.69317955092674e-06
Golden4F11 68.53717 -149.248205 7.96922043 7.625 1.75 17.375 6.385045922 -0.735952796892184 0.314461097847983 0.192536303399616 0.0174189502183431 3.03481920091442e-06
Golden4G01 69.95223 -148.60872 8.794444444 8.25 0.25 19 14.07453381 0.122146575826057 0.0281881776397137 -0.123141789036385 -1.02245156589612 2.41184859250954e-07
Golden4G02 68.556594 -149.574373 9.29469086 9 2 16 7.116192372 0.0206507999824484 -0.878492709261502 0.132640412541153 0.0270501789724311 1.21444908468549e-06
Golden4G03 68.556594 -149.574373 9.29469086 9 2 16 7.116192372 0.020650396884375 -0.878474265506265 0.132634622405427 0.0270465266142034 -6.38818285131348e-06
Golden4G04 68.556594 -149.574373 9.29469086 9 2 16 7.116192372 0.0206508366277613 -0.878494385966454 0.132640938917513 0.0270505110046921 2.10887634949364e-06
Golden4G05 68.605367 -149.736093 8.458291331 8.125 1.125 15.75 7.647271623 0.0206504335296879 -0.878475942211217 0.132635148781787 0.0270468586464644 -5.49375558639431e-06
Golden4G06 68.605367 -149.736093 8.458291331 8.125 1.125 15.75 7.647271623 0.0206506350785404 -0.878485164089222 0.132638043847531 0.0270486848272565 -2.81047360717324e-06
Golden4G07 68.623432 -149.792559 8.458291331 8.125 1.125 15.75 7.647271623 0.0206508366277613 -0.878494385966454 0.132640938917513 0.0270505110046921 2.10887634949364e-06
Golden4G08 68.62373 -149.7778 8.458291331 8.125 1.125 15.75 7.647271623 0.0206507266918226 -0.8784893558516 0.132639359788432 0.0270495149079091 -5.74405445041837e-07
Golden4G09 68.62373 -149.7778 8.458291331 8.125 1.125 15.75 7.647271623 0.0206507999824484 -0.878492709261502 0.132640412541153 0.0270501789724311 1.21444908468549e-06
Golden4G10 68.53717 -149.248205 7.96922043 7.625 1.75 17.375 6.385045922 -0.735949843228891 0.314459678559583 0.192535011031207 0.0174183246922365 1.24596633430119e-06
Golden4G11 68.53717 -149.248205 7.96922043 7.625 1.75 17.375 6.385045922 -0.479344317067293 0.182813780735118 -0.257825236336884 0.038264114845402 4.37042247031227e-06
Golden4H01 69.9519 -148.60873 8.794444444 8.25 0.25 19 14.07453381 0.122146216313865 0.0281879721432213 -0.12314181111001 -1.0224489148499 -1.10045177581508e-06
Golden4H02 68.556594 -149.574373 9.29469086 9 2 16 7.116192372 0.020650781659792 -0.878491870909027 0.132640149352973 0.0270500129563006 7.67235452225901e-07
Golden4H03 68.556594 -149.574373 9.29469086 9 2 16 7.116192372 0.0206507083691662 -0.878488517499124 0.132639096600252 0.0270493488917786 -1.02161907744591e-06
Golden4H04 68.605367 -149.736093 8.458291331 8.125 1.125 15.75 7.647271623 0.0206508366277613 -0.878494385966454 0.132640938917513 0.0270505110046921 2.10887634949364e-06
Golden4H05 68.605367 -149.736093 8.458291331 8.125 1.125 15.75 7.647271623 0.0206507999824484 -0.878492709261502 0.132640412541153 0.0270501789724311 1.21444908468549e-06
Golden4H06 68.605367 -149.736093 8.458291331 8.125 1.125 15.75 7.647271623 0.020650177012866 -0.878464205275785 0.132631464151503 0.0270445344172808 -9.51867846293863e-06
Golden4H07 68.623432 -149.792559 8.458291331 8.125 1.125 15.75 7.647271623 0.0206508366277613 -0.878494385966454 0.132640938917513 0.0270505110046921 2.10887634949364e-06
Golden4H08 68.62373 -149.7778 8.458291331 8.125 1.125 15.75 7.647271623 0.020650781659792 -0.878491870909027 0.132640149352973 0.0270500129563006 7.67235452225901e-07
Golden4H09 68.53717 -149.248205 7.96922043 7.625 1.75 17.375 6.385045922 -0.735952058476361 0.314460743025883 0.192535980307514 0.0174187938368164 2.58760598428887e-06
Golden4H10 68.53717 -149.248205 7.96922043 7.625 1.75 17.375 6.385045922 -0.73594688956523 0.314458259271955 0.192533718667038 0.0174176991627735 1.69318144516151e-06
Golden4H12 68.57208 -149.34697 7.96922043 7.625 1.75 17.375 6.385045922 -0.735949104813068 0.314459323737483 0.192534687939105 0.0174181683107099 7.98753117675632e-07
Golden5A01 68.57208 -149.34697 7.96922043 7.625 1.75 17.375 6.385045922 -0.735950581644714 0.314460033381683 0.192535334123309 0.0174184810737632 1.69317955092674e-06
Golden5A02 68.57208 -149.34697 7.96922043 7.625 1.75 17.375 6.385045922 -0.735949843228891 0.314459678559583 0.192535011031207 0.0174183246922365 1.24596633430119e-06
Golden5A03 68.644798 -149.403978 7.726666667 7.375 0.5 18.5 9.492294216 -0.613668536170271 0.251725940208712 -0.0220757003824828 0.0273517572969278 2.11652425222142e-06
Golden5A04 68.99595 -149.75283 7.726666667 7.375 0.5 18.5 9.492294216 0.0293718514647161 0.0152729083323981 -0.859073252757054 0.0892549560009445 -6.99969716466686e-07
Golden5A05 68.99595 -149.75283 7.726666667 7.375 0.5 18.5 9.492294216 -0.735921783426508 0.314446195322098 0.192522733544045 0.0174123821841551 -9.03993196617325e-06
Golden5A06 68.605671 -149.198055 10.44864286 10.625 1.25 20.75 12.45157584 0.662820069273485 0.367704172143587 0.142761902203032 0.210820649660988 1.8290866060644e-06
Golden5A07 68.613991 -149.198929 10.44864286 10.625 1.25 20.75 12.45157584 0.662819408665433 0.367703764067709 0.142761628893372 0.21082029984228 1.38187325338102e-06
Golden5A08 68.613991 -149.198929 10.44864286 10.625 1.25 20.75 12.45157584 0.662820729881536 0.367704580219465 0.142762175512691 0.210820999479695 2.27629995858125e-06
Golden5A09 68.86308 -148.84487 2.805611559 2.625 1.875 5.125 0.415161099 0.489312065821635 0.2587498520628 0.0574309326618203 -0.184940472698539 -7.73027388115133e-07
Golden5A10 68.86308 -148.84487 2.805611559 2.625 1.875 5.125 0.415161099 0.49475690427741 0.262168919268057 0.0601085573004769 -0.172524237878757 5.80095857904972e-07
Golden5A11 68.86308 -148.84487 2.805611559 2.625 1.875 5.125 0.415161099 0.662820729881536 0.367704580219465 0.142762175512691 0.210820999479695 2.27629995858125e-06
Golden5A12 68.866114 -148.838931 8.794444444 8.25 0.25 19 14.07453381 0.523173498852527 0.280013085346727 0.0740835698567463 -0.107712774413525 1.08725217816408e-06
Golden5B01 68.57208 -149.34697 7.96922043 7.625 1.75 17.375 6.385045922 -0.73594688956523 0.314458259271955 0.192533718667038 0.0174176991627735 1.69318144516151e-06
Golden5B02 68.57208 -149.34697 7.96922043 7.625 1.75 17.375 6.385045922 -0.735949843228891 0.314459678559583 0.192535011031207 0.0174183246922365 1.24596633430119e-06
Golden5B03 68.644798 -149.403978 7.726666667 7.375 0.5 18.5 9.492294216 -0.735950581644714 0.314460033381683 0.192535334123309 0.0174184810737632 1.69317955092674e-06
Golden5B04 68.99595 -149.75283 7.726666667 7.375 0.5 18.5 9.492294216 -0.058008677293778 -0.0333427466796397 -0.997274545950576 0.0724868002381971 9.09716740993272e-07
Golden5B05 68.99595 -149.75283 7.726666667 7.375 0.5 18.5 9.492294216 -0.49234354055275 0.302330138773796 0.117098796865713 0.048883379324756 -1.28298915333391e-06
Golden5B06 68.605671 -149.198055 10.44864286 10.625 1.25 20.75 12.45157584 0.662816766233597 0.367702131764971 0.142760535658973 0.210818900564094 1.82908782059288e-06
Golden5B07 68.613991 -149.198929 10.44864286 10.625 1.25 20.75 12.45157584 0.66281280258529 0.367699683309704 0.142758895801016 0.21081680165185 -8.54192294896805e-07
Golden5B08 68.613991 -149.198929 10.44864286 10.625 1.25 20.75 12.45157584 0.613061837999241 0.336458466742532 0.118290629431818 0.0973195414074419 2.61853198467443e-06
Golden5B09 68.86308 -148.84487 2.805611559 2.625 1.875 5.125 0.415161099 0.454728759379002 0.237033223672903 0.0404225549854218 -0.263830966574595 1.3900695034208e-06
Golden5B10 68.86308 -148.84487 2.805611559 2.625 1.875 5.125 0.415161099 0.548768293739569 0.29608533547804 0.086671075168824 -0.0493320661172563 1.58846332687368e-06
Golden5B11 68.86308 -148.84487 2.805611559 2.625 1.875 5.125 0.415161099 0.465690481629653 0.24391665299411 0.045813648890623 -0.238824904872966 5.18772323904182e-07
Golden5B12 68.866114 -148.838931 8.794444444 8.25 0.25 19 14.07453381 0.446332090593215 0.231760479700578 0.0362926485847121 -0.282993069660445 2.71398213733121e-06
Golden5C01 68.57208 -149.34697 7.96922043 7.625 1.75 17.375 6.385045922 -0.735949843228891 0.314459678559583 0.192535011031207 0.0174183246922365 1.24596633430119e-06
Golden5C02 68.57208 -149.34697 7.96922043 7.625 1.75 17.375 6.385045922 -0.543355538174835 0.215653607050679 -0.145470704688292 0.0330617269634802 1.01829209353532e-06
Golden5C03 68.644798 -149.403978 7.726666667 7.375 0.5 18.5 9.492294216 -0.57533450898771 0.23205966123318 -0.089347975841932 0.0304644279560753 1.8020113287387e-06
Golden5C04 68.99595 -149.75283 7.726666667 7.375 0.5 18.5 9.492294216 -0.0580089790533452 -0.0333427118974407 -0.997278880668464 0.0724878575499621 3.14579456178743e-06
Golden5C05 68.99595 -149.75283 7.726666667 7.375 0.5 18.5 9.492294216 -0.735940982238646 0.314455420695155 0.192531133930221 0.0174164481105605 -1.88452428806496e-06
Golden5C06 68.605671 -149.198055 10.44864286 10.625 1.25 20.75 12.45157584 0.662814784409444 0.367700907537338 0.142759715729994 0.210817851107972 4.87447762820281e-07
Golden5C07 68.613991 -149.198929 10.44864286 10.625 1.25 20.75 12.45157584 0.662821390489587 0.367704988295343 0.142762448822351 0.210821349298402 2.72351331126464e-06
Golden5C08 68.613991 -149.198929 10.44864286 10.625 1.25 20.75 12.45157584 0.662821390489587 0.367704988295343 0.142762448822351 0.210821349298402 2.72351331126464e-06
Golden5C09 68.86308 -148.84487 2.805611559 2.625 1.875 5.125 0.415161099 0.501553613956366 0.266436988838217 0.0634517562451568 -0.157008179054378 -4.32489617954723e-06
Golden5C10 68.86308 -148.84487 2.805611559 2.625 1.875 5.125 0.415161099 0.527452558620967 0.282700155602965 0.0761882754931089 -0.0979464308234014 1.09628820331442e-06
Golden5C11 68.866114 -148.838931 8.794444444 8.25 0.25 19 14.07453381 0.495510376051671 0.262642021509633 0.0604788063273309 -0.170812506880292 1.02888928740774e-06
Golden5C12 68.866114 -148.838931 8.794444444 8.25 0.25 19 14.07453381 0.483238246669194 0.254935728504818 0.0544433038907275 -0.198806457292907 1.45020984737565e-06
Golden5D01 68.57208 -149.34697 7.96922043 7.625 1.75 17.375 6.385045922 -0.735947627981054 0.314458614094055 0.19253404175914 0.0174178555443002 2.14039466184257e-06
Golden5D02 68.57208 -149.34697 7.96922043 7.625 1.75 17.375 6.385045922 -0.735951320060537 0.314460388203783 0.192535657215412 0.0174186374552898 2.1403927676078e-06
Golden5D03 68.644798 -149.403978 7.726666667 7.375 0.5 18.5 9.492294216 -0.735945412733584 0.314457549627755 0.192533072482834 0.0174173863997203 7.9875501185489e-07
Golden5D04 68.99595 -149.75283 7.726666667 7.375 0.5 18.5 9.492294216 -0.0580091601090854 -0.0333426910281213 -0.997281481499197 0.072488491937021 4.48744125419731e-06
Golden5D05 68.605671 -149.198055 10.44864286 10.625 1.25 20.75 12.45157584 0.662804214680994 0.367694378324066 0.14275534277968 0.210812254005298 -4.43189790101661e-06
Golden5D06 68.605671 -149.198055 10.44864286 10.625 1.25 20.75 12.45157584 0.662820729881536 0.367704580219465 0.142762175512691 0.210820999479695 2.27629995858125e-06
Golden5D07 68.613991 -149.198929 10.44864286 10.625 1.25 20.75 12.45157584 0.662817426841648 0.367702539840849 0.142760808968633 0.210819250382802 2.27630117322075e-06
Golden5D08 68.764232 -148.904292 2.805611559 2.625 1.875 5.125 0.415161099 0.610249710761503 0.334692597599524 0.116907672795222 0.0909062210268202 2.1653870776045e-06
Golden5D09 68.86308 -148.84487 2.805611559 2.625 1.875 5.125 0.415161099 0.498001949134138 0.264206652628016 0.0617045266006023 -0.165121116008177 1.39730204878896e-07
Golden5D10 68.86308 -148.84487 2.805611559 2.625 1.875 5.125 0.415161099 0.499379110731189 0.265071421286061 0.0623816619172324 -0.16198327406524 1.48427157882491e-06
Golden5D11 68.866114 -148.838931 8.794444444 8.25 0.25 19 14.07453381 0.465880411966573 0.244035913036422 0.0459070053248118 -0.238392829780808 9.66384992584501e-07
Golden5D12 68.62877 -149.62448 7.96922043 7.625 1.75 17.375 6.385045922 -0.735943197486115 0.314456485161455 0.192532103206528 0.0174169172551404 -5.4288463813279e-07
Golden5E01 68.57208 -149.34697 7.96922043 7.625 1.75 17.375 6.385045922 -0.735945412733584 0.314457549627755 0.192533072482834 0.0174173863997203 7.9875501185489e-07
Golden5E02 68.57208 -149.34697 7.96922043 7.625 1.75 17.375 6.385045922 -0.735950581644714 0.314460033381683 0.192535334123309 0.0174184810737632 1.69317955092674e-06
Golden5E03 68.644798 -149.403978 7.726666667 7.375 0.5 18.5 9.492294216 -0.735944674317761 0.314457194805655 0.192532749390732 0.0174172300181937 3.51541795229338e-07
Golden5E04 68.99595 -149.75283 7.726666667 7.375 0.5 18.5 9.492294216 -0.258749664622307 0.0696426315668185 -0.644977810178293 0.0561831371557084 4.2396972955161e-06
Golden5E05 68.605671 -149.198055 10.44864286 10.625 1.25 20.75 12.45157584 0.662819408665433 0.367703764067709 0.142761628893372 0.21082029984228 1.38187325338102e-06
Golden5E06 68.605671 -149.198055 10.44864286 10.625 1.25 20.75 12.45157584 0.662805535897096 0.367695194475822 0.142755889398999 0.210812953642713 -3.5374711959274e-06
Golden5E07 68.613991 -149.198929 10.44864286 10.625 1.25 20.75 12.45157584 0.635799501846872 0.350736594337109 0.129473096751322 0.149185432440316 2.21929131966059e-06
Golden5E08 68.86308 -148.84487 2.805611559 2.625 1.875 5.125 0.415161099 0.442118946428589 0.229114834927735 0.0342206182326902 -0.292603274247457 2.70509336239289e-06
Golden5E09 68.86308 -148.84487 2.805611559 2.625 1.875 5.125 0.415161099 0.476617834233248 0.250778486381973 0.0511877365973749 -0.213899554585488 5.41826549987912e-07
Golden5E10 68.86308 -148.84487 2.805611559 2.625 1.875 5.125 0.415161099 0.494589025699903 0.262063513385839 0.0600260975315719 -0.172904855756809 -3.146822454142e-07
Golden5E12 68.734727 -149.639792 7.726666667 7.375 0.5 18.5 9.492294216 -0.735949843228891 0.314459678559583 0.192535011031207 0.0174183246922365 1.24596633430119e-06
Golden5F01 68.57208 -149.34697 7.96922043 7.625 1.75 17.375 6.385045922 -0.735938766991176 0.314454356228854 0.192530164653915 0.0174159789659806 -3.22616393805264e-06
Golden5F02 68.57208 -149.34697 7.96922043 7.625 1.75 17.375 6.385045922 -0.735943935901938 0.314456839983555 0.19253242629863 0.017417073636667 -9.56714214517262e-08
Golden5F04 68.99595 -149.75283 7.726666667 7.375 0.5 18.5 9.492294216 -0.0783831878117209 -0.0228903437090225 -0.961527947205021 0.0708343242005833 3.96970077531922e-06
Golden5F05 68.605671 -149.198055 10.44864286 10.625 1.25 20.75 12.45157584 0.662812141977239 0.367699275233827 0.142758622491356 0.210816451833143 -1.30140564746917e-06
Golden5F06 68.605671 -149.198055 10.44864286 10.625 1.25 20.75 12.45157584 0.662821390489587 0.367704988295343 0.142762448822351 0.210821349298402 2.72351331126464e-06
Golden5F07 68.613991 -149.198929 10.44864286 10.625 1.25 20.75 12.45157584 0.662779772183839 0.367679279518135 0.142745230330754 0.210799310706413 -1.65066559918159e-05
Golden5F08 68.86308 -148.84487 2.805611559 2.625 1.875 5.125 0.415161099 0.430424781037747 0.221771481287287 0.0284694108957025 -0.319277728642802 2.68042133594326e-06
Golden5F09 68.86308 -148.84487 2.805611559 2.625 1.875 5.125 0.415161099 0.4414203321648 0.22867616696479 0.0338772450475685 -0.294192189027804 9.14771609961118e-07
Golden5F10 68.86308 -148.84487 2.805611559 2.625 1.875 5.125 0.415161099 0.50713814949458 0.269943738337526 0.0661977746396477 -0.144280236626248 -2.88206451357076e-07
Golden5F11 68.866114 -148.838931 8.794444444 8.25 0.25 19 14.07453381 0.458668212171316 0.239506976877489 0.0423597772100297 -0.254849681608635 9.5116070980561e-07
Golden5G01 68.57208 -149.34697 7.96922043 7.625 1.75 17.375 6.385045922 -0.670664394137508 0.316944766095751 0.190211913349967 0.0264450707303923 1.2523095851702e-06
Golden5G02 68.57208 -149.34697 7.96922043 7.625 1.75 17.375 6.385045922 -0.735949104813068 0.314459323737483 0.192534687939105 0.0174181683107099 7.98753117675632e-07
Golden5G03 68.99595 -149.75283 7.726666667 7.375 0.5 18.5 9.492294216 -0.110642859309146 -0.00633946606359612 -0.904879497390038 0.068206866761878 -5.9807521147065e-06
Golden5G04 68.99595 -149.75283 7.726666667 7.375 0.5 18.5 9.492294216 0.0682731074720236 0.0369165457483122 -0.797551803295807 0.0967214454818782 1.4167773315088e-06
Golden5G05 68.605671 -149.198055 10.44864286 10.625 1.25 20.75 12.45157584 0.662821390489587 0.367704988295343 0.142762448822351 0.210821349298402 2.72351331126464e-06
Golden5G06 68.605671 -149.198055 10.44864286 10.625 1.25 20.75 12.45157584 0.662818748057382 0.367703355991831 0.142761355583712 0.210819950023573 9.34659900864165e-07
Golden5G07 68.613991 -149.198929 10.44864286 10.625 1.25 20.75 12.45157584 0.662820729881536 0.367704580219465 0.142762175512691 0.210820999479695 2.27629995858125e-06
Golden5G08 68.86308 -148.84487 2.805611559 2.625 1.875 5.125 0.415161099 0.466001126664526 0.244111769881341 0.0459667856132932 -0.238108222648427 -2.61105599774769e-06
Golden5G09 68.86308 -148.84487 2.805611559 2.625 1.875 5.125 0.415161099 0.513006174702307 0.273628620037506 0.0690840904924067 -0.130885983190343 -3.8535219250152e-06
Golden5G10 68.86308 -148.84487 2.805611559 2.625 1.875 5.125 0.415161099 0.480859396562636 0.253441929075254 0.0532733819912866 -0.204232627229791 1.4451910152341e-06
Golden5G11 68.866114 -148.838931 8.794444444 8.25 0.25 19 14.07453381 0.485670752907887 0.256463214560862 0.0556395623746962 -0.193259054460749 1.9025538405687e-06
Golden5H01 68.57208 -149.34697 7.96922043 7.625 1.75 17.375 6.385045922 -0.735945412733584 0.314457549627755 0.192533072482834 0.0174173863997203 7.9875501185489e-07
Golden5H02 68.57208 -149.34697 7.96922043 7.625 1.75 17.375 6.385045922 -0.735945412733584 0.314457549627755 0.192533072482834 0.0174173863997203 7.9875501185489e-07
Golden5H03 68.99595 -149.75283 7.726666667 7.375 0.5 18.5 9.492294216 -0.0773226958569575 -0.0234344056016837 -0.963389163008321 0.0709204706129878 3.97337223537186e-06
Golden5H04 68.99595 -149.75283 7.726666667 7.375 0.5 18.5 9.492294216 -0.0580094618690207 -0.0333426562466951 -0.997285816221326 0.0724895492521424 4.48745109737914e-06
Golden5H05 68.605671 -149.198055 10.44864286 10.625 1.25 20.75 12.45157584 0.662814784409444 0.367700907537338 0.142759715729994 0.210817851107972 4.87447762820281e-07
Golden5H07 68.613991 -149.198929 10.44864286 10.625 1.25 20.75 12.45157584 0.662815445017495 0.367701315613216 0.142759989039654 0.21081820092668 9.34661115503665e-07
Golden5H08 68.86308 -148.84487 2.805611559 2.625 1.875 5.125 0.415161099 0.521035110428498 0.278670263622504 0.0730317526231911 -0.112593921049739 2.42437654207617e-06
Golden5H09 68.86308 -148.84487 2.805611559 2.625 1.875 5.125 0.415161099 0.496910010341392 0.263520915405989 0.061167096903154 -0.167621090540394 1.47905415591454e-06
Golden5H10 68.86308 -148.84487 2.805611559 2.625 1.875 5.125 0.415161099 0.521036858587691 0.278671476182482 0.0730334892060424 -0.112570263952369 -2.94215509272222e-06
