ID_indiv LAT LONG JA_TAVG JA_TMED JA_TMIN JA_TMAX JA_TVAR PC1 PC2
Golden4A03 68.556594 -149.574373 9.29469086 9 2 16 7.116192372 0.0883374 -0.0425669
Golden4A04 68.556594 -149.574373 9.29469086 9 2 16 7.116192372 0.0750975 -0.0341027
Golden4B04 68.556594 -149.574373 9.29469086 9 2 16 7.116192372 0.0824998 -0.0391043
Golden4C02 68.556594 -149.574373 9.29469086 9 2 16 7.116192372 0.0887582 -0.0476841
Golden4C03 68.563736 -149.650008 9.29469086 9 2 16 7.116192372 0.0802535 -0.0360535
Golden4C04 68.556594 -149.574373 9.29469086 9 2 16 7.116192372 0.0897267 -0.0433197
Golden4D02 68.556594 -149.574373 9.29469086 9 2 16 7.116192372 0.0895911 -0.0411404
Golden4D03 68.563736 -149.650008 9.29469086 9 2 16 7.116192372 0.0720284 -0.0370021
Golden4D04 68.556594 -149.574373 9.29469086 9 2 16 7.116192372 0.0786949 -0.0408566
Golden4E02 68.556594 -149.574373 9.29469086 9 2 16 7.116192372 0.0745913 -0.0382124
Golden4E03 68.563736 -149.650008 9.29469086 9 2 16 7.116192372 0.0754387 -0.04504
Golden4E04 68.556594 -149.574373 9.29469086 9 2 16 7.116192372 0.0792038 -0.0330486
Golden4F02 68.556594 -149.574373 9.29469086 9 2 16 7.116192372 0.0764885 -0.0354645
Golden4F03 68.556594 -149.574373 9.29469086 9 2 16 7.116192372 0.075961 -0.0398029
Golden4F04 68.556594 -149.574373 9.29469086 9 2 16 7.116192372 0.0838775 -0.0419779
Golden4G02 68.556594 -149.574373 9.29469086 9 2 16 7.116192372 0.0855023 -0.0450005
Golden4G03 68.556594 -149.574373 9.29469086 9 2 16 7.116192372 0.0710012 -0.0406831
Golden4G04 68.556594 -149.574373 9.29469086 9 2 16 7.116192372 0.0931653 -0.0354276
Golden4H02 68.556594 -149.574373 9.29469086 9 2 16 7.116192372 0.0736998 -0.032877
Golden4H03 68.556594 -149.574373 9.29469086 9 2 16 7.116192372 0.0811692 -0.0407564
Golden1F01 68.563894 -149.650939 9.29469086 9 2 16 7.116192372 0.0838733 -0.0416163
Golden1G01 68.56351 -149.64786 9.29469086 9 2 16 7.116192372 0.086564 -0.0325743
Golden1H01 68.56366 -149.64935 9.29469086 9 2 16 7.116192372 0.084804 -0.0417737
Golden1A02 68.586878 -149.722825 9.29469086 9 2 16 7.116192372 0.0895153 -0.0431865
Golden1B02 68.58677 -149.72253 9.29469086 9 2 16 7.116192372 0.0846212 -0.0504881
Golden1C02 68.586303 -149.721571 9.29469086 9 2 16 7.116192372 0.076353 -0.0358594
Golden1A01 68.59256 -149.73114 8.458291331 8.125 1.125 15.75 7.647271623 0.075433 -0.0277483
Golden1B01 68.59193 -149.72536 8.458291331 8.125 1.125 15.75 7.647271623 0.0823245 -0.0418856
Golden1D01 68.59144 -149.72534 8.458291331 8.125 1.125 15.75 7.647271623 0.0780426 -0.0420097
Golden1E01 68.59314 -149.73141 8.458291331 8.125 1.125 15.75 7.647271623 0.0808879 -0.0403342
Golden1A04 68.60555 -149.7361 8.458291331 8.125 1.125 15.75 7.647271623 0.0756273 -0.030528
Golden1B04 68.60491 -149.73471 8.458291331 8.125 1.125 15.75 7.647271623 0.0822915 -0.0369971
Golden1C04 68.604453 -149.734594 8.458291331 8.125 1.125 15.75 7.647271623 0.0717397 -0.0344302
Golden1D03 68.60576 -149.73741 8.458291331 8.125 1.125 15.75 7.647271623 0.0814185 -0.0396173
Golden1E03 68.60623 -149.73811 8.458291331 8.125 1.125 15.75 7.647271623 0.0748708 -0.0390173
Golden1F03 68.60754 -149.73795 8.458291331 8.125 1.125 15.75 7.647271623 0.0725926 -0.0352791
Golden4A05 68.605367 -149.736093 8.458291331 8.125 1.125 15.75 7.647271623 0.0863496 -0.0410856
Golden4A06 68.605367 -149.736093 8.458291331 8.125 1.125 15.75 7.647271623 0.0848498 -0.0400215
Golden4A07 68.605367 -149.736093 8.458291331 8.125 1.125 15.75 7.647271623 0.082774 -0.041061
Golden4B05 68.605367 -149.736093 8.458291331 8.125 1.125 15.75 7.647271623 0.0834274 -0.0326547
Golden4B06 68.605367 -149.736093 8.458291331 8.125 1.125 15.75 7.647271623 0.0771589 -0.0327206
Golden4B07 68.605367 -149.736093 8.458291331 8.125 1.125 15.75 7.647271623 0.0726207 -0.0384223
Golden4C05 68.605367 -149.736093 8.458291331 8.125 1.125 15.75 7.647271623 0.0764036 -0.0298626
Golden4C06 68.605367 -149.736093 8.458291331 8.125 1.125 15.75 7.647271623 0.0791574 -0.0278583
Golden4D05 68.605367 -149.736093 8.458291331 8.125 1.125 15.75 7.647271623 0.084385 -0.0355898
Golden4D06 68.605367 -149.736093 8.458291331 8.125 1.125 15.75 7.647271623 0.0727365 -0.0368829
Golden4E05 68.605367 -149.736093 8.458291331 8.125 1.125 15.75 7.647271623 0.0797657 -0.0431336
Golden4E06 68.605367 -149.736093 8.458291331 8.125 1.125 15.75 7.647271623 0.0691106 -0.0346175
Golden4F05 68.605367 -149.736093 8.458291331 8.125 1.125 15.75 7.647271623 0.071518 -0.037207
Golden4F06 68.605367 -149.736093 8.458291331 8.125 1.125 15.75 7.647271623 0.0843606 -0.0378199
Golden4G05 68.605367 -149.736093 8.458291331 8.125 1.125 15.75 7.647271623 0.0857911 -0.047298
Golden4G06 68.605367 -149.736093 8.458291331 8.125 1.125 15.75 7.647271623 0.0739867 -0.0309327
Golden4H04 68.605367 -149.736093 8.458291331 8.125 1.125 15.75 7.647271623 0.0702261 -0.0450075
Golden4H05 68.605367 -149.736093 8.458291331 8.125 1.125 15.75 7.647271623 0.0816811 -0.0412144
Golden4H06 68.605367 -149.736093 8.458291331 8.125 1.125 15.75 7.647271623 0.0749762 -0.0387127
Golden1B03 68.62199 -149.77505 8.458291331 8.125 1.125 15.75 7.647271623 0.0725703 -0.0382147
Golden1C03 68.6225 -149.77594 8.458291331 8.125 1.125 15.75 7.647271623 0.0707845 -0.0368338
Golden1E02 68.62362 -149.77643 8.458291331 8.125 1.125 15.75 7.647271623 0.086213 -0.0360001
Golden1G02 68.62131 -149.77341 8.458291331 8.125 1.125 15.75 7.647271623 0.0809954 -0.0380511
Golden1H02 68.62155 -149.77492 8.458291331 8.125 1.125 15.75 7.647271623 0.0889484 -0.0372511
Golden4A09 68.62373 -149.7778 8.458291331 8.125 1.125 15.75 7.647271623 0.0816111 -0.0370013
Golden4B09 68.62373 -149.7778 8.458291331 8.125 1.125 15.75 7.647271623 0.081751 -0.039905
Golden4C08 68.62373 -149.7778 8.458291331 8.125 1.125 15.75 7.647271623 0.0801634 -0.0345134
Golden4C09 68.62373 -149.7778 8.458291331 8.125 1.125 15.75 7.647271623 0.0836176 -0.0417167
Golden4D08 68.62373 -149.7778 8.458291331 8.125 1.125 15.75 7.647271623 0.0929019 -0.0438543
Golden4D09 68.62373 -149.7778 8.458291331 8.125 1.125 15.75 7.647271623 0.0826809 -0.0303988
Golden4E08 68.62373 -149.7778 8.458291331 8.125 1.125 15.75 7.647271623 0.0785178 -0.0296363
Golden4E09 68.62373 -149.7778 8.458291331 8.125 1.125 15.75 7.647271623 0.0781564 -0.0387535
Golden4F08 68.62373 -149.7778 8.458291331 8.125 1.125 15.75 7.647271623 0.0730615 -0.0391553
Golden4F09 68.62373 -149.7778 8.458291331 8.125 1.125 15.75 7.647271623 0.0824097 -0.0425034
Golden4G08 68.62373 -149.7778 8.458291331 8.125 1.125 15.75 7.647271623 0.0875799 -0.0429564
Golden4G09 68.62373 -149.7778 8.458291331 8.125 1.125 15.75 7.647271623 0.0817733 -0.0337717
Golden4H08 68.62373 -149.7778 8.458291331 8.125 1.125 15.75 7.647271623 0.0942993 -0.0363142
Golden4A08 68.623432 -149.792559 8.458291331 8.125 1.125 15.75 7.647271623 0.0817742 -0.0323014
Golden4B08 68.623432 -149.792559 8.458291331 8.125 1.125 15.75 7.647271623 0.086526 -0.042742
Golden4C07 68.623432 -149.792559 8.458291331 8.125 1.125 15.75 7.647271623 0.0789476 -0.0293218
Golden4D07 68.623432 -149.792559 8.458291331 8.125 1.125 15.75 7.647271623 0.0796364 -0.0337614
Golden4E07 68.623432 -149.792559 8.458291331 8.125 1.125 15.75 7.647271623 0.0641396 -0.0332446
Golden4F07 68.623432 -149.792559 8.458291331 8.125 1.125 15.75 7.647271623 0.078711 -0.0433365
Golden4G07 68.623432 -149.792559 8.458291331 8.125 1.125 15.75 7.647271623 0.0795734 -0.0388115
Golden4H07 68.623432 -149.792559 8.458291331 8.125 1.125 15.75 7.647271623 0.0793761 -0.0269268
Golden1A05 68.93901 -150.12854 ? ? ? ? ? 0.0908951 -0.0380366
Golden1B05 68.93854 -150.13164 ? ? ? ? ? 0.0778783 -0.0395014
Golden1C05 68.94015 -150.13855 ? ? ? ? ? 0.0921999 -0.0466542
Golden1D04 68.93862 -150.12836 ? ? ? ? ? 0.0864555 -0.0462296
Golden1E04 68.939 -150.12973 ? ? ? ? ? 0.0861199 -0.0424651
Golden1F04 68.93885 -150.13402 ? ? ? ? ? 0.0771096 -0.0396348
Golden1G04 68.93971 -150.12683 ? ? ? ? ? 0.0786711 -0.0351009
Golden1H04 68.93867 -150.13306 ? ? ? ? ? 0.0814741 -0.0342538
Golden1A07 69.45268 -150.71251 ? ? ? ? ? 0.0736237 -0.0252318
Golden1C06 69.45026 -150.71449 ? ? ? ? ? 0.0813907 -0.0458455
Golden1D05 69.45402 -150.71362 ? ? ? ? ? 0.0864316 -0.0381739
Golden1D06 69.45257 -150.70667 ? ? ? ? ? 0.0744519 -0.0274413
Golden1D07 69.4507 -150.71315 ? ? ? ? ? 0.078658 -0.0405656
Golden1E05 69.45439 -150.71405 ? ? ? ? ? 0.0755079 -0.0423743
Golden1F05 69.45472 -150.71474 ? ? ? ? ? 0.071173 -0.0323228
Golden1F06 69.45274 -150.70538 ? ? ? ? ? 0.0859662 -0.040341
Golden1B08 69.9356 -150.85579 ? ? ? ? ? 0.0794291 -0.0367313
Golden4A10 68.53717 -149.248205 7.96922043 7.625 1.75 17.375 6.385045922 0.00167941 0.0664817
Golden4A11 68.53717 -149.248205 7.96922043 7.625 1.75 17.375 6.385045922 0.00123532 0.0683551
Golden4A12 68.53717 -149.248205 7.96922043 7.625 1.75 17.375 6.385045922 -0.00237396 0.0690809
Golden4B10 68.53717 -149.248205 7.96922043 7.625 1.75 17.375 6.385045922 0.00247692 0.0557365
Golden4B11 68.53717 -149.248205 7.96922043 7.625 1.75 17.375 6.385045922 -0.00187307 0.0628972
Golden4B12 68.53717 -149.248205 7.96922043 7.625 1.75 17.375 6.385045922 -0.00203187 0.0520698
Golden4C10 68.53717 -149.248205 7.96922043 7.625 1.75 17.375 6.385045922 0.000204332 0.0559916
Golden4C11 68.53717 -149.248205 7.96922043 7.625 1.75 17.375 6.385045922 0.00391459 0.0643889
Golden4C12 68.53717 -149.248205 7.96922043 7.625 1.75 17.375 6.385045922 0.000520655 0.0665952
Golden4D10 68.53717 -149.248205 7.96922043 7.625 1.75 17.375 6.385045922 0.00424204 0.0715161
Golden4D11 68.53717 -149.248205 7.96922043 7.625 1.75 17.375 6.385045922 -0.00426759 0.0619612
Golden4D12 68.53717 -149.248205 7.96922043 7.625 1.75 17.375 6.385045922 0.000963366 0.064708
Golden4E10 68.53717 -149.248205 7.96922043 7.625 1.75 17.375 6.385045922 -0.00234809 0.0616765
Golden4E11 68.53717 -149.248205 7.96922043 7.625 1.75 17.375 6.385045922 0.00261901 0.0716278
Golden4F10 68.53717 -149.248205 7.96922043 7.625 1.75 17.375 6.385045922 -0.0021862 0.0605228
Golden4F11 68.53717 -149.248205 7.96922043 7.625 1.75 17.375 6.385045922 -6.32718e-05 0.0669299
Golden4G10 68.53717 -149.248205 7.96922043 7.625 1.75 17.375 6.385045922 0.00333438 0.0779394
Golden4G11 68.53717 -149.248205 7.96922043 7.625 1.75 17.375 6.385045922 0.00330786 0.0434117
Golden4H10 68.53717 -149.248205 7.96922043 7.625 1.75 17.375 6.385045922 -0.00386604 0.0735549
Golden4H09 68.53717 -149.248205 7.96922043 7.625 1.75 17.375 6.385045922 -0.00137061 0.0554674
Golden5H12 68.53722 -149.24829 7.96922043 7.625 1.75 17.375 6.385045922 0.00208715 0.0687072
Golden5F12 68.53722 -149.24829 7.96922043 7.625 1.75 17.375 6.385045922 0.0119693 0.0470571
Golden5G12 68.53722 -149.24829 7.96922043 7.625 1.75 17.375 6.385045922 -0.00145995 0.07623
Golden6A01 68.53722 -149.24829 7.96922043 7.625 1.75 17.375 6.385045922 -0.00925142 0.058293
Golden6A02 68.53722 -149.24829 7.96922043 7.625 1.75 17.375 6.385045922 0.000272024 0.0318298
Golden6A03 68.53722 -149.24829 7.96922043 7.625 1.75 17.375 6.385045922 0.000405084 0.0523955
Golden6B01 68.53722 -149.24829 7.96922043 7.625 1.75 17.375 6.385045922 0.00387319 0.0652634
Golden6B02 68.53722 -149.24829 7.96922043 7.625 1.75 17.375 6.385045922 0.00106963 0.0650279
Golden6B03 68.53722 -149.24829 7.96922043 7.625 1.75 17.375 6.385045922 0.00171767 0.058952
Golden6C01 68.53722 -149.24829 7.96922043 7.625 1.75 17.375 6.385045922 0.00489863 0.0652123
Golden6C02 68.53722 -149.24829 7.96922043 7.625 1.75 17.375 6.385045922 -0.00280953 0.060144
Golden6C03 68.53722 -149.24829 7.96922043 7.625 1.75 17.375 6.385045922 0.00567262 0.0648299
Golden6D01 68.53722 -149.24829 7.96922043 7.625 1.75 17.375 6.385045922 -0.00270848 0.0574926
Golden6D02 68.53722 -149.24829 7.96922043 7.625 1.75 17.375 6.385045922 0.000584821 0.0685231
Golden6D03 68.53722 -149.24829 7.96922043 7.625 1.75 17.375 6.385045922 -0.000108351 0.0644775
Golden6E01 68.53722 -149.24829 7.96922043 7.625 1.75 17.375 6.385045922 0.00232747 0.0677086
Golden6E02 68.53722 -149.24829 7.96922043 7.625 1.75 17.375 6.385045922 0.0023082 0.0593602
Golden6E03 68.53722 -149.24829 7.96922043 7.625 1.75 17.375 6.385045922 -0.00133743 0.0620596
Golden6F01 68.53722 -149.24829 7.96922043 7.625 1.75 17.375 6.385045922 -0.000324548 0.0640888
Golden6F02 68.53722 -149.24829 7.96922043 7.625 1.75 17.375 6.385045922 -0.000526868 0.0663613
Golden6G01 68.53722 -149.24829 7.96922043 7.625 1.75 17.375 6.385045922 -0.00452183 0.0706561
Golden6G02 68.53722 -149.24829 7.96922043 7.625 1.75 17.375 6.385045922 0.00320001 0.0692024
Golden6H01 68.53722 -149.24829 7.96922043 7.625 1.75 17.375 6.385045922 0.000293825 0.0595895
Golden6H02 68.53722 -149.24829 7.96922043 7.625 1.75 17.375 6.385045922 0.00142645 0.0699641
Golden1A10 68.54027 -149.282667 7.96922043 7.625 1.75 17.375 6.385045922 0.00102369 0.0692316
Golden1A11 68.54114 -149.285513 7.96922043 7.625 1.75 17.375 6.385045922 -0.00212095 0.0654496
Golden1B10 68.540525 -149.282397 7.96922043 7.625 1.75 17.375 6.385045922 -0.0037262 0.0650689
Golden1B11 68.541314 -149.28663 7.96922043 7.625 1.75 17.375 6.385045922 -0.00228255 0.0675634
Golden1C10 68.540657 -149.283094 7.96922043 7.625 1.75 17.375 6.385045922 -0.00442093 0.0616991
Golden1C11 68.539591 -149.281346 7.96922043 7.625 1.75 17.375 6.385045922 -0.00280494 0.0632008
Golden1C09 68.539486 -149.28108 7.96922043 7.625 1.75 17.375 6.385045922 0.00176643 0.0689592
Golden1D10 68.54077 -149.283598 7.96922043 7.625 1.75 17.375 6.385045922 -0.00312985 0.069516
Golden1D11 68.539838 -149.281525 7.96922043 7.625 1.75 17.375 6.385045922 0.00164963 0.0713731
Golden1D09 68.539262 -149.280722 7.96922043 7.625 1.75 17.375 6.385045922 -0.00470739 0.0703231
Golden1E10 68.54096 -149.28419 7.96922043 7.625 1.75 17.375 6.385045922 -0.00161406 0.0664253
Golden1E09 68.539474 -149.281149 7.96922043 7.625 1.75 17.375 6.385045922 -0.00203799 0.0624333
Golden1F10 68.541148 -149.284799 7.96922043 7.625 1.75 17.375 6.385045922 0.00182718 0.0686821
Golden1F09 68.539667 -149.281602 7.96922043 7.625 1.75 17.375 6.385045922 0.000718169 0.0658569
Golden1G10 68.541288 -149.285375 7.96922043 7.625 1.75 17.375 6.385045922 -0.000254596 0.0697333
Golden1G09 68.539927 -149.273913 7.96922043 7.625 1.75 17.375 6.385045922 -0.00311812 0.0667317
Golden1H10 68.541306 -149.285939 7.96922043 7.625 1.75 17.375 6.385045922 -0.00368724 0.0550249
Golden1H09 68.540007 -149.282492 7.96922043 7.625 1.75 17.375 6.385045922 -0.00428359 0.0589002
Golden4H12 68.57208 -149.34697 7.96922043 7.625 1.75 17.375 6.385045922 -0.000473297 0.0718674
Golden5A01 68.57208 -149.34697 7.96922043 7.625 1.75 17.375 6.385045922 -0.000426579 0.0702267
Golden5A02 68.57208 -149.34697 7.96922043 7.625 1.75 17.375 6.385045922 -0.00379102 0.0652432
Golden5B01 68.57208 -149.34697 7.96922043 7.625 1.75 17.375 6.385045922 -0.00215673 0.0568178
Golden5B02 68.57208 -149.34697 7.96922043 7.625 1.75 17.375 6.385045922 0.00325237 0.0608153
Golden5C01 68.57208 -149.34697 7.96922043 7.625 1.75 17.375 6.385045922 -0.00273886 0.0602401
Golden5C02 68.57208 -149.34697 7.96922043 7.625 1.75 17.375 6.385045922 -0.00289479 0.0448002
Golden5D01 68.57208 -149.34697 7.96922043 7.625 1.75 17.375 6.385045922 -0.000390358 0.0600354
Golden5D02 68.57208 -149.34697 7.96922043 7.625 1.75 17.375 6.385045922 -0.00156966 0.0647601
Golden5E01 68.57208 -149.34697 7.96922043 7.625 1.75 17.375 6.385045922 0.00144179 0.06438
Golden5E02 68.57208 -149.34697 7.96922043 7.625 1.75 17.375 6.385045922 0.00268047 0.0597363
Golden5F01 68.57208 -149.34697 7.96922043 7.625 1.75 17.375 6.385045922 -0.00390085 0.0584813
Golden5F02 68.57208 -149.34697 7.96922043 7.625 1.75 17.375 6.385045922 0.00357426 0.0625861
Golden5G01 68.57208 -149.34697 7.96922043 7.625 1.75 17.375 6.385045922 -0.003345 0.0646387
Golden5G02 68.57208 -149.34697 7.96922043 7.625 1.75 17.375 6.385045922 -0.0061654 0.0705449
Golden5H01 68.57208 -149.34697 7.96922043 7.625 1.75 17.375 6.385045922 -0.000774038 0.0679948
Golden5H02 68.57208 -149.34697 7.96922043 7.625 1.75 17.375 6.385045922 -0.00137492 0.0694655
Golden5D12 68.62877 -149.62448 7.96922043 7.625 1.75 17.375 6.385045922 0.00211573 0.0613192
Golden5A03 68.644798 -149.403978 7.726666667 7.375 0.5 18.5 9.492294216 0.00275513 0.058905
Golden5B03 68.644798 -149.403978 7.726666667 7.375 0.5 18.5 9.492294216 -0.00505643 0.0587415
Golden5C03 68.644798 -149.403978 7.726666667 7.375 0.5 18.5 9.492294216 0.0076664 0.0501198
Golden5D03 68.644798 -149.403978 7.726666667 7.375 0.5 18.5 9.492294216 0.00529883 0.0618664
Golden5E03 68.644798 -149.403978 7.726666667 7.375 0.5 18.5 9.492294216 0.00542243 0.071689
Golden2A07 68.6707 -149.44415 7.726666667 7.375 0.5 18.5 9.492294216 -0.00532311 0.0587137
Golden2F06 68.66966 -149.44521 7.726666667 7.375 0.5 18.5 9.492294216 0.00211305 0.0685675
Golden2G06 68.66911 -149.44209 7.726666667 7.375 0.5 18.5 9.492294216 0.000268837 0.0664401
Golden2H06 68.67076 -149.44396 7.726666667 7.375 0.5 18.5 9.492294216 0.00481558 0.0718713
Golden5E12 68.734727 -149.639792 7.726666667 7.375 0.5 18.5 9.492294216 -0.00608497 0.0577094
Golden1A12 68.766113 -149.554721 7.726666667 7.375 0.5 18.5 9.492294216 -0.00628585 0.055428
Golden1B12 68.766113 -149.554721 7.726666667 7.375 0.5 18.5 9.492294216 0.00652743 0.0672646
Golden1C12 68.766113 -149.554721 7.726666667 7.375 0.5 18.5 9.492294216 -0.00189011 0.0686725
Golden1D12 68.766113 -149.554721 7.726666667 7.375 0.5 18.5 9.492294216 0.00431349 0.0687646
Golden1E11 68.766113 -149.554721 7.726666667 7.375 0.5 18.5 9.492294216 0.000907875 0.0641132
Golden1E12 68.766113 -149.554721 7.726666667 7.375 0.5 18.5 9.492294216 -0.000780561 0.0740867
Golden1F11 68.766113 -149.554721 7.726666667 7.375 0.5 18.5 9.492294216 -0.00237583 0.0730866
Golden1F12 68.766113 -149.554721 7.726666667 7.375 0.5 18.5 9.492294216 -0.00116714 0.0727952
Golden1G11 68.766113 -149.554721 7.726666667 7.375 0.5 18.5 9.492294216 -0.00188817 0.0589158
Golden1G12 68.766113 -149.554721 7.726666667 7.375 0.5 18.5 9.492294216 0.00169979 0.0595961
Golden1H11 68.766113 -149.554721 7.726666667 7.375 0.5 18.5 9.492294216 0.000295025 0.0707649
Golden1H12 68.766113 -149.554721 7.726666667 7.375 0.5 18.5 9.492294216 -0.00733111 0.0532365
Golden2A01 68.766113 -149.554721 7.726666667 7.375 0.5 18.5 9.492294216 -0.00297281 0.0582365
Golden2B01 68.766113 -149.554721 7.726666667 7.375 0.5 18.5 9.492294216 0.00457962 0.0643203
Golden2C01 68.766113 -149.554721 7.726666667 7.375 0.5 18.5 9.492294216 -0.00140161 0.0613535
Golden2D01 68.766113 -149.554721 7.726666667 7.375 0.5 18.5 9.492294216 0.00190974 0.0659932
Golden2E01 68.766113 -149.554721 7.726666667 7.375 0.5 18.5 9.492294216 0.00295221 0.0617805
Golden2F01 68.766113 -149.554721 7.726666667 7.375 0.5 18.5 9.492294216 -0.00168441 0.0619414
Golden2G01 68.766113 -149.554721 7.726666667 7.375 0.5 18.5 9.492294216 0.00122033 0.0701035
Golden2H01 68.766113 -149.554721 7.726666667 7.375 0.5 18.5 9.492294216 0.0058422 0.0626624
Golden2B07 68.77435 -149.57126 7.726666667 7.375 0.5 18.5 9.492294216 0.00532418 0.0671641
Golden2C07 68.77494 -149.57278 7.726666667 7.375 0.5 18.5 9.492294216 -0.000126582 0.0577897
Golden2D07 68.77446 -149.571429 7.726666667 7.375 0.5 18.5 9.492294216 0.00352428 0.0695139
Golden2A02 68.9085 -149.6879833 7.726666667 7.375 0.5 18.5 9.492294216 -0.000874562 0.0583454
Golden2A03 68.9085 -149.6879833 7.726666667 7.375 0.5 18.5 9.492294216 -0.00526541 0.0634722
Golden2A04 68.9085 -149.6879833 7.726666667 7.375 0.5 18.5 9.492294216 0.00698376 0.0556815
Golden2B02 68.9085 -149.6879833 7.726666667 7.375 0.5 18.5 9.492294216 0.00146727 0.0557601
Golden2B03 68.9085 -149.6879833 7.726666667 7.375 0.5 18.5 9.492294216 -0.000687462 0.067102
Golden2C02 68.9085 -149.6879833 7.726666667 7.375 0.5 18.5 9.492294216 -0.000333958 0.062663
Golden2C03 68.9085 -149.6879833 7.726666667 7.375 0.5 18.5 9.492294216 -0.000721416 0.0565323
Golden2D02 68.9085 -149.6879833 7.726666667 7.375 0.5 18.5 9.492294216 0.00146192 0.0618208
Golden2D03 68.9085 -149.6879833 7.726666667 7.375 0.5 18.5 9.492294216 0.00102259 0.0637788
Golden2E02 68.9085 -149.6879833 7.726666667 7.375 0.5 18.5 9.492294216 -0.00420245 0.064114
Golden2E03 68.9085 -149.6879833 7.726666667 7.375 0.5 18.5 9.492294216 0.00432506 0.0696737
Golden2F02 68.9085 -149.6879833 7.726666667 7.375 0.5 18.5 9.492294216 -0.00400815 0.0564124
Golden2F03 68.9085 -149.6879833 7.726666667 7.375 0.5 18.5 9.492294216 0.000530123 0.0583415
Golden2G02 68.9085 -149.6879833 7.726666667 7.375 0.5 18.5 9.492294216 0.000346748 0.0682158
Golden2G03 68.9085 -149.6879833 7.726666667 7.375 0.5 18.5 9.492294216 -0.000799483 0.0680185
Golden2H02 68.9085 -149.6879833 7.726666667 7.375 0.5 18.5 9.492294216 0.00104369 0.050366
Golden2H03 68.9085 -149.6879833 7.726666667 7.375 0.5 18.5 9.492294216 -0.000641402 0.0633148
Golden1B09 68.964611 -149.701186 7.726666667 7.375 0.5 18.5 9.492294216 -0.00032679 0.0626814
Golden1E08 68.96534 -149.70133 7.726666667 7.375 0.5 18.5 9.492294216 0.00482197 0.0662455
Golden1F08 68.96545 -149.702018 7.726666667 7.375 0.5 18.5 9.492294216 0.00309348 0.0743846
Golden1G08 68.96524 -149.70183 7.726666667 7.375 0.5 18.5 9.492294216 0.00380539 0.055097
Golden1H08 68.9657 -149.70258 7.726666667 7.375 0.5 18.5 9.492294216 -0.00139373 0.0740363
Golden5A05 68.99595 -149.75283 7.726666667 7.375 0.5 18.5 9.492294216 0.00475903 0.0693131
Golden5B05 68.99595 -149.75283 7.726666667 7.375 0.5 18.5 9.492294216 -0.00981229 0.0497772
Golden5C05 68.99595 -149.75283 7.726666667 7.375 0.5 18.5 9.492294216 -0.00206751 0.0562343
Golden2A05 68.99595 -149.75283 7.726666667 7.375 0.5 18.5 9.492294216 0.00193781 0.0242357
Golden2A06 68.99595 -149.75283 7.726666667 7.375 0.5 18.5 9.492294216 -0.00283866 0.0400719
Golden2B04 68.99595 -149.75283 7.726666667 7.375 0.5 18.5 9.492294216 0.000253678 0.0290874
Golden2B05 68.99595 -149.75283 7.726666667 7.375 0.5 18.5 9.492294216 -0.00143653 0.0275758
Golden2B06 68.99595 -149.75283 7.726666667 7.375 0.5 18.5 9.492294216 0.00313417 0.0352089
Golden2C04 68.99595 -149.75283 7.726666667 7.375 0.5 18.5 9.492294216 0.00636347 0.0381915
Golden2C05 68.99595 -149.75283 7.726666667 7.375 0.5 18.5 9.492294216 0.0140688 0.0329168
Golden2C06 68.99595 -149.75283 7.726666667 7.375 0.5 18.5 9.492294216 -0.0019311 0.0397103
Golden2D04 68.99595 -149.75283 7.726666667 7.375 0.5 18.5 9.492294216 0.00423664 0.0382436
Golden2D05 68.99595 -149.75283 7.726666667 7.375 0.5 18.5 9.492294216 -0.00158705 0.0492253
Golden2D06 68.99595 -149.75283 7.726666667 7.375 0.5 18.5 9.492294216 0.000831412 0.0701186
Golden2E04 68.99595 -149.75283 7.726666667 7.375 0.5 18.5 9.492294216 0.00876796 0.0370595
Golden2E05 68.99595 -149.75283 7.726666667 7.375 0.5 18.5 9.492294216 0.00252371 0.0355723
Golden2E06 68.99595 -149.75283 7.726666667 7.375 0.5 18.5 9.492294216 -0.00217711 0.0559517
Golden2F04 68.99595 -149.75283 7.726666667 7.375 0.5 18.5 9.492294216 0.00456734 0.0194491
Golden2F05 68.99595 -149.75283 7.726666667 7.375 0.5 18.5 9.492294216 -0.00120409 0.0401828
Golden2G04 68.99595 -149.75283 7.726666667 7.375 0.5 18.5 9.492294216 0.00647024 0.0387604
Golden2G05 68.99595 -149.75283 7.726666667 7.375 0.5 18.5 9.492294216 -0.0017674 0.0329961
Golden2H04 68.99595 -149.75283 7.726666667 7.375 0.5 18.5 9.492294216 0.00840251 0.0304199
Golden2H05 68.99595 -149.75283 7.726666667 7.375 0.5 18.5 9.492294216 0.00638724 0.0559289
Golden5A04 68.99595 -149.75283 7.726666667 7.375 0.5 18.5 9.492294216 0.00368915 0.014933
Golden5B04 68.99595 -149.75283 7.726666667 7.375 0.5 18.5 9.492294216 0.00888176 0.0208978
Golden5C04 68.99595 -149.75283 7.726666667 7.375 0.5 18.5 9.492294216 0.00389661 0.00555128
Golden5D04 68.99595 -149.75283 7.726666667 7.375 0.5 18.5 9.492294216 -0.00304522 0.0206618
Golden5E04 68.99595 -149.75283 7.726666667 7.375 0.5 18.5 9.492294216 0.00185939 0.0217069
Golden5F03 68.99595 -149.75283 7.726666667 7.375 0.5 18.5 9.492294216 -0.000238661 0.0206152
Golden5F04 68.99595 -149.75283 7.726666667 7.375 0.5 18.5 9.492294216 0.0061908 0.0238545
Golden5G03 68.99595 -149.75283 7.726666667 7.375 0.5 18.5 9.492294216 0.000210876 0.0151852
Golden5G04 68.99595 -149.75283 7.726666667 7.375 0.5 18.5 9.492294216 -0.00240819 0.00930876
Golden5H03 68.99595 -149.75283 7.726666667 7.375 0.5 18.5 9.492294216 -0.00278163 0.0264162
Golden2A08 69.26089 -150.23299 8.855062724 9 2.375 17 6.011513584 0.00438873 0.0183912
Golden2A09 69.26104 -150.23253 8.855062724 9 2.375 17 6.011513584 0.000334319 0.0265154
Golden2B08 69.26194 -150.23973 8.855062724 9 2.375 17 6.011513584 -0.00560026 0.0185629
Golden2C08 69.25789 -150.23042 8.855062724 9 2.375 17 6.011513584 0.00316337 0.0129491
Golden2D08 69.26206 -150.24077 8.855062724 9 2.375 17 6.011513584 0.000718751 0.0218211
Golden2E07 69.26077 -150.23257 8.855062724 9 2.375 17 6.011513584 0.00266334 0.0347849
Golden2E08 69.26232 -150.2361 8.855062724 9 2.375 17 6.011513584 0.0069437 0.0128021
Golden2F07 69.26382 -150.24681 8.855062724 9 2.375 17 6.011513584 0.00661999 0.0250638
Golden2F08 69.26034 -150.23396 8.855062724 9 2.375 17 6.011513584 0.00569772 0.0236738
Golden2G07 69.26363 -150.24757 8.855062724 9 2.375 17 6.011513584 -0.000470381 0.0172295
Golden2G08 69.26186 -150.24257 8.855062724 9 2.375 17 6.011513584 0.00371614 0.0238895
Golden2H07 69.26304 -150.24745 8.855062724 9 2.375 17 6.011513584 0.00319832 0.0214945
Golden2H08 69.26225 -150.24673 8.855062724 9 2.375 17 6.011513584 0.00131939 0.0212196
Golden2A10 69.59872 -150.04155 8.855062724 9 2.375 17 6.011513584 0.000246087 0.0161099
Golden2B10 69.60088 -150.03502 8.855062724 9 2.375 17 6.011513584 0.00641878 0.0267338
Golden2B09 69.60426 -150.03113 8.855062724 9 2.375 17 6.011513584 0.00443347 0.0229245
Golden2C10 69.60041 -150.03906 8.855062724 9 2.375 17 6.011513584 0.00111487 0.0203103
Golden2C09 69.60061 -150.03778 8.855062724 9 2.375 17 6.011513584 0.00249372 0.0215959
Golden2D10 69.5986 -150.04082 8.855062724 9 2.375 17 6.011513584 0.00210115 0.0159717
Golden2D09 69.60081 -150.03648 8.855062724 9 2.375 17 6.011513584 0.000218496 0.0165538
Golden2E10 69.60365 -150.03038 8.855062724 9 2.375 17 6.011513584 0.00488825 0.0211659
Golden2E09 69.60077 -150.03328 8.855062724 9 2.375 17 6.011513584 0.00233958 0.0147609
Golden2F10 69.59872 -150.0399 8.855062724 9 2.375 17 6.011513584 -0.00271611 0.0296106
Golden2F09 69.59925 -150.03986 8.855062724 9 2.375 17 6.011513584 -0.00221328 0.0147088
Golden2G09 69.59846 -150.04021 8.855062724 9 2.375 17 6.011513584 -0.000920805 0.0119903
Golden2H09 69.59925 -150.03986 8.855062724 9 2.375 17 6.011513584 0.00167805 0.0242652
Golden2A11 69.96434 -149.45775 8.855062724 9 2.375 17 6.011513584 -0.00284791 0.0164147
Golden2B11 69.96371 -149.459 8.855062724 9 2.375 17 6.011513584 0.00947638 0.0136989
Golden2C11 69.96281 -149.4623 8.855062724 9 2.375 17 6.011513584 0.00842931 0.0149226
Golden2D11 69.96148 -149.45947 8.855062724 9 2.375 17 6.011513584 0.000772304 0.0166937
Golden2E11 69.96348 -149.45569 8.855062724 9 2.375 17 6.011513584 0.0100486 0.00530225
Golden2H10 69.96524 -149.45848 8.855062724 9 2.375 17 6.011513584 0.00961155 0.0170584
Golden5A06 68.605671 -149.198055 10.44864286 10.625 1.25 20.75 12.45157584 -0.0465467 -0.0423577
Golden5B06 68.605671 -149.198055 10.44864286 10.625 1.25 20.75 12.45157584 -0.0555155 -0.0437254
Golden5C06 68.605671 -149.198055 10.44864286 10.625 1.25 20.75 12.45157584 -0.0455589 -0.0444618
Golden5D05 68.605671 -149.198055 10.44864286 10.625 1.25 20.75 12.45157584 -0.0523055 -0.0442915
Golden5D06 68.605671 -149.198055 10.44864286 10.625 1.25 20.75 12.45157584 -0.0493633 -0.0410116
Golden5E05 68.605671 -149.198055 10.44864286 10.625 1.25 20.75 12.45157584 -0.0530103 -0.0427482
Golden5E06 68.605671 -149.198055 10.44864286 10.625 1.25 20.75 12.45157584 -0.0479004 -0.0377536
Golden5F05 68.605671 -149.198055 10.44864286 10.625 1.25 20.75 12.45157584 -0.0461397 -0.0423107
Golden5F06 68.605671 -149.198055 10.44864286 10.625 1.25 20.75 12.45157584 -0.0481655 -0.0334591
Golden5G05 68.605671 -149.198055 10.44864286 10.625 1.25 20.75 12.45157584 -0.0509067 -0.0456797
Golden5G06 68.605671 -149.198055 10.44864286 10.625 1.25 20.75 12.45157584 -0.0521985 -0.0420207
Golden5H05 68.605671 -149.198055 10.44864286 10.625 1.25 20.75 12.45157584 -0.0463471 -0.0428651
Golden5A07 68.613991 -149.198929 10.44864286 10.625 1.25 20.75 12.45157584 -0.0474064 -0.0445422
Golden5A08 68.613991 -149.198929 10.44864286 10.625 1.25 20.75 12.45157584 -0.04755 -0.0443765
Golden5B07 68.613991 -149.198929 10.44864286 10.625 1.25 20.75 12.45157584 -0.0478326 -0.0441339
Golden5B08 68.613991 -149.198929 10.44864286 10.625 1.25 20.75 12.45157584 -0.05127 -0.0392059
Golden5C07 68.613991 -149.198929 10.44864286 10.625 1.25 20.75 12.45157584 -0.0489458 -0.0404882
Golden5C08 68.613991 -149.198929 10.44864286 10.625 1.25 20.75 12.45157584 -0.0474029 -0.0440967
Golden5D07 68.613991 -149.198929 10.44864286 10.625 1.25 20.75 12.45157584 -0.0412183 -0.0348176
Golden5E07 68.613991 -149.198929 10.44864286 10.625 1.25 20.75 12.45157584 -0.0484467 -0.038631
Golden5F07 68.613991 -149.198929 10.44864286 10.625 1.25 20.75 12.45157584 -0.0441505 -0.0323317
Golden5G07 68.613991 -149.198929 10.44864286 10.625 1.25 20.75 12.45157584 -0.0477965 -0.0425573
Golden5H06 68.613991 -149.198929 10.44864286 10.625 1.25 20.75 12.45157584 -0.0477101 -0.0409673
Golden5H07 68.613991 -149.198929 10.44864286 10.625 1.25 20.75 12.45157584 -0.0507747 -0.0490954
Golden3A02 68.619633 -149.188117 10.44864286 10.625 1.25 20.75 12.45157584 -0.0462118 -0.0387693
Golden3B02 68.619867 -149.18872 10.44864286 10.625 1.25 20.75 12.45157584 -0.0508029 -0.04571
Golden3C02 68.620091 -149.190344 10.44864286 10.625 1.25 20.75 12.45157584 -0.0515636 -0.0500081
Golden3D02 68.620224 -149.19112 10.44864286 10.625 1.25 20.75 12.45157584 -0.0537467 -0.0456677
Golden3H01 68.62005 -149.189419 10.44864286 10.625 1.25 20.75 12.45157584 -0.0479405 -0.036899
Golden3A10 68.63203 -149.20679 10.44864286 10.625 1.25 20.75 12.45157584 -0.05379 -0.0432351
Golden3A11 68.663442 -149.184539 10.44864286 10.625 1.25 20.75 12.45157584 -0.0453161 -0.0426453
Golden3B10 68.663906 -149.17732 10.44864286 10.625 1.25 20.75 12.45157584 -0.0515042 -0.0500301
Golden3C10 68.6628 -149.18804 10.44864286 10.625 1.25 20.75 12.45157584 -0.0503992 -0.0411987
Golden3D10 68.6638 -149.18279 10.44864286 10.625 1.25 20.75 12.45157584 -0.0505056 -0.0451188
Golden3E10 68.66276 -149.18876 10.44864286 10.625 1.25 20.75 12.45157584 -0.046493 -0.0374716
Golden3F10 68.6626 -149.18894 10.44864286 10.625 1.25 20.75 12.45157584 -0.050321 -0.0420735
Golden3G10 68.66268 -149.18919 10.44864286 10.625 1.25 20.75 12.45157584 -0.0482802 -0.0443244
Golden3A03 68.637973 -149.216459 10.44864286 10.625 1.25 20.75 12.45157584 -0.0424105 -0.0338371
Golden3A04 68.640136 -149.216977 10.44864286 10.625 1.25 20.75 12.45157584 -0.0477756 -0.0407812
Golden3B03 68.638246 -149.216095 10.44864286 10.625 1.25 20.75 12.45157584 -0.0460805 -0.0418277
Golden3B04 68.640373 -149.217581 10.44864286 10.625 1.25 20.75 12.45157584 -0.0470522 -0.03758
Golden3C03 68.638557 -149.215864 10.44864286 10.625 1.25 20.75 12.45157584 -0.0509656 -0.0384154
Golden3C04 68.640677 -149.217629 10.44864286 10.625 1.25 20.75 12.45157584 -0.046837 -0.0431663
Golden3D03 68.638773 -149.216478 10.44864286 10.625 1.25 20.75 12.45157584 -0.0497149 -0.0420255
Golden3D04 68.641005 -149.217332 10.44864286 10.625 1.25 20.75 12.45157584 -0.0416664 -0.0435626
Golden3E02 68.636745 -149.216692 10.44864286 10.625 1.25 20.75 12.45157584 -0.0462454 -0.0344336
Golden3E03 68.639007 -149.216977 10.44864286 10.625 1.25 20.75 12.45157584 -0.0504591 -0.0406739
Golden3E04 68.641327 -149.217341 10.44864286 10.625 1.25 20.75 12.45157584 -0.0477085 -0.0442067
Golden3F02 68.63716 -149.21668 10.44864286 10.625 1.25 20.75 12.45157584 -0.049321 -0.0452436
Golden3F03 68.639318 -149.217092 10.44864286 10.625 1.25 20.75 12.45157584 -0.0467071 -0.0405937
Golden3F04 68.641648 -149.217351 10.44864286 10.625 1.25 20.75 12.45157584 -0.0482034 -0.0458164
Golden3G02 68.637376 -149.217408 10.44864286 10.625 1.25 20.75 12.45157584 -0.0487107 -0.040964
Golden3G03 68.639629 -149.217159 10.44864286 10.625 1.25 20.75 12.45157584 -0.0478737 -0.045641
Golden3G04 68.641934 -149.217514 10.44864286 10.625 1.25 20.75 12.45157584 -0.0456365 -0.0432927
Golden3H02 68.637715 -149.217207 10.44864286 10.625 1.25 20.75 12.45157584 -0.0496676 -0.0425192
Golden3H03 68.639839 -149.216823 10.44864286 10.625 1.25 20.75 12.45157584 -0.0479579 -0.0410828
Golden3H04 68.642242 -149.217715 10.44864286 10.625 1.25 20.75 12.45157584 -0.0501737 -0.0377984
Golden3E01 68.6715 -149.1281 10.44864286 10.625 1.25 20.75 12.45157584 -0.0504664 -0.0394632
Golden3F01 68.6713 -149.1313 10.44864286 10.625 1.25 20.75 12.45157584 -0.0482026 -0.0442102
Golden3G01 68.6685 -149.1524 10.44864286 10.625 1.25 20.75 12.45157584 -0.0470926 -0.037811
Golden5D08 68.764232 -148.904292 2.805611559 2.625 1.875 5.125 0.415161099 -0.0445263 -0.0433908
Golden3A05 68.764232 -148.904292 2.805611559 2.625 1.875 5.125 0.415161099 -0.0497594 -0.0351354
Golden3A06 68.764232 -148.904292 2.805611559 2.625 1.875 5.125 0.415161099 -0.0503798 -0.0423839
Golden3A07 68.764232 -148.904292 2.805611559 2.625 1.875 5.125 0.415161099 -0.0522901 -0.0417354
Golden3B05 68.764232 -148.904292 2.805611559 2.625 1.875 5.125 0.415161099 -0.0485375 -0.0435214
Golden3B06 68.764232 -148.904292 2.805611559 2.625 1.875 5.125 0.415161099 -0.0497439 -0.0361373
Golden3B07 68.764232 -148.904292 2.805611559 2.625 1.875 5.125 0.415161099 -0.0483374 -0.0379392
Golden3C05 68.764232 -148.904292 2.805611559 2.625 1.875 5.125 0.415161099 -0.0488998 -0.0370637
Golden3C06 68.764232 -148.904292 2.805611559 2.625 1.875 5.125 0.415161099 -0.0511827 -0.0397729
Golden3C07 68.764232 -148.904292 2.805611559 2.625 1.875 5.125 0.415161099 -0.0490411 -0.0445636
Golden3D05 68.764232 -148.904292 2.805611559 2.625 1.875 5.125 0.415161099 -0.0519279 -0.0405651
Golden3D06 68.764232 -148.904292 2.805611559 2.625 1.875 5.125 0.415161099 -0.0451721 -0.043355
Golden3D07 68.764232 -148.904292 2.805611559 2.625 1.875 5.125 0.415161099 -0.051144 -0.0443254
Golden3E05 68.764232 -148.904292 2.805611559 2.625 1.875 5.125 0.415161099 -0.0459278 -0.0358569
Golden3E06 68.764232 -148.904292 2.805611559 2.625 1.875 5.125 0.415161099 -0.0490906 -0.0405426
Golden3F05 68.764232 -148.904292 2.805611559 2.625 1.875 5.125 0.415161099 -0.0409501 -0.039033
Golden3F06 68.764232 -148.904292 2.805611559 2.625 1.875 5.125 0.415161099 -0.0499596 -0.0435119
Golden3G05 68.764232 -148.904292 2.805611559 2.625 1.875 5.125 0.415161099 -0.0484461 -0.03718
Golden3G06 68.764232 -148.904292 2.805611559 2.625 1.875 5.125 0.415161099 -0.0516902 -0.0432699
Golden3H05 68.764232 -148.904292 2.805611559 2.625 1.875 5.125 0.415161099 -0.0514784 -0.0375789
Golden3H06 68.764232 -148.904292 2.805611559 2.625 1.875 5.125 0.415161099 -0.044452 -0.037927
Golden3B11 68.8495 -148.85346 2.805611559 2.625 1.875 5.125 0.415161099 -0.0406465 -0.0347569
Golden3C11 68.85123 -148.85411 2.805611559 2.625 1.875 5.125 0.415161099 -0.0405423 -0.0371627
Golden3D11 68.84934 -148.85334 2.805611559 2.625 1.875 5.125 0.415161099 -0.0385662 -0.0335087
Golden3E11 68.85116 -148.85546 2.805611559 2.625 1.875 5.125 0.415161099 -0.0413085 -0.0316255
Golden3F11 68.851297 -148.854231 2.805611559 2.625 1.875 5.125 0.415161099 -0.0453933 -0.0378326
Golden3A08 68.862886 -148.844078 2.805611559 2.625 1.875 5.125 0.415161099 -0.0378477 -0.0279673
Golden3A09 68.862886 -148.844078 2.805611559 2.625 1.875 5.125 0.415161099 -0.0414616 -0.0334781
Golden3B08 68.862886 -148.844078 2.805611559 2.625 1.875 5.125 0.415161099 -0.0432656 -0.0334191
Golden3B09 68.862886 -148.844078 2.805611559 2.625 1.875 5.125 0.415161099 -0.0393045 -0.0370683
Golden3C08 68.862886 -148.844078 2.805611559 2.625 1.875 5.125 0.415161099 -0.0426696 -0.0303806
Golden3C09 68.862886 -148.844078 2.805611559 2.625 1.875 5.125 0.415161099 -0.0418989 -0.0355087
Golden3D08 68.862886 -148.844078 2.805611559 2.625 1.875 5.125 0.415161099 -0.0409192 -0.0366493
Golden3D09 68.862886 -148.844078 2.805611559 2.625 1.875 5.125 0.415161099 -0.0464204 -0.0356559
Golden3E07 68.862886 -148.844078 2.805611559 2.625 1.875 5.125 0.415161099 -0.0416937 -0.0356635
Golden3E08 68.862886 -148.844078 2.805611559 2.625 1.875 5.125 0.415161099 -0.0424905 -0.0307394
Golden3E09 68.862886 -148.844078 2.805611559 2.625 1.875 5.125 0.415161099 -0.0435915 -0.0354226
Golden3F07 68.862886 -148.844078 2.805611559 2.625 1.875 5.125 0.415161099 -0.0448519 -0.0365381
Golden3F08 68.862886 -148.844078 2.805611559 2.625 1.875 5.125 0.415161099 -0.0421086 -0.032769
Golden3F09 68.862886 -148.844078 2.805611559 2.625 1.875 5.125 0.415161099 -0.0418445 -0.0270398
Golden3G07 68.862886 -148.844078 2.805611559 2.625 1.875 5.125 0.415161099 -0.0452287 -0.0287234
Golden3G08 68.862886 -148.844078 2.805611559 2.625 1.875 5.125 0.415161099 -0.0467183 -0.0299555
Golden3G09 68.862886 -148.844078 2.805611559 2.625 1.875 5.125 0.415161099 -0.0440895 -0.0249442
Golden3H07 68.862886 -148.844078 2.805611559 2.625 1.875 5.125 0.415161099 -0.0420184 -0.0307098
Golden3H08 68.862886 -148.844078 2.805611559 2.625 1.875 5.125 0.415161099 -0.0390699 -0.0286208
Golden3H09 68.862886 -148.844078 2.805611559 2.625 1.875 5.125 0.415161099 -0.0432487 -0.0292917
Golden5A10 68.86308 -148.84487 2.805611559 2.625 1.875 5.125 0.415161099 -0.0420965 -0.0373865
Golden5A11 68.86308 -148.84487 2.805611559 2.625 1.875 5.125 0.415161099 -0.0487421 -0.0429087
Golden5A09 68.86308 -148.84487 2.805611559 2.625 1.875 5.125 0.415161099 -0.0439438 -0.0362685
Golden5B10 68.86308 -148.84487 2.805611559 2.625 1.875 5.125 0.415161099 -0.0425042 -0.0358092
Golden5B11 68.86308 -148.84487 2.805611559 2.625 1.875 5.125 0.415161099 -0.0337551 -0.0275381
Golden5B09 68.86308 -148.84487 2.805611559 2.625 1.875 5.125 0.415161099 -0.0376151 -0.0291826
Golden5C10 68.86308 -148.84487 2.805611559 2.625 1.875 5.125 0.415161099 -0.0428407 -0.0332419
Golden5C09 68.86308 -148.84487 2.805611559 2.625 1.875 5.125 0.415161099 -0.0398153 -0.0299978
Golden5D10 68.86308 -148.84487 2.805611559 2.625 1.875 5.125 0.415161099 -0.0378165 -0.0291565
Golden5D09 68.86308 -148.84487 2.805611559 2.625 1.875 5.125 0.415161099 -0.0426936 -0.0335431
Golden5E10 68.86308 -148.84487 2.805611559 2.625 1.875 5.125 0.415161099 -0.0431322 -0.0411019
Golden5E09 68.86308 -148.84487 2.805611559 2.625 1.875 5.125 0.415161099 -0.0458221 -0.0350022
Golden5F10 68.86308 -148.84487 2.805611559 2.625 1.875 5.125 0.415161099 -0.050577 -0.0358488
Golden5F09 68.86308 -148.84487 2.805611559 2.625 1.875 5.125 0.415161099 -0.0368484 -0.0265913
Golden5G10 68.86308 -148.84487 2.805611559 2.625 1.875 5.125 0.415161099 -0.0403978 -0.0370313
Golden5G08 68.86308 -148.84487 2.805611559 2.625 1.875 5.125 0.415161099 -0.0439784 -0.0310481
Golden5G09 68.86308 -148.84487 2.805611559 2.625 1.875 5.125 0.415161099 -0.0420409 -0.0351232
Golden5H10 68.86308 -148.84487 2.805611559 2.625 1.875 5.125 0.415161099 -0.0424274 -0.0392227
Golden5H08 68.86308 -148.84487 2.805611559 2.625 1.875 5.125 0.415161099 -0.0415418 -0.0362178
Golden5H09 68.86308 -148.84487 2.805611559 2.625 1.875 5.125 0.415161099 -0.0403438 -0.0342985
Golden5E08 68.86308 -148.84487 2.805611559 2.625 1.875 5.125 0.415161099 -0.0434873 -0.026465
Golden5F08 68.86308 -148.84487 2.805611559 2.625 1.875 5.125 0.415161099 -0.0411546 -0.0327059
Golden6A04 68.863389 -148.845022 2.805611559 2.625 1.875 5.125 0.415161099 -0.0398341 -0.0316695
Golden6B04 68.863389 -148.845022 2.805611559 2.625 1.875 5.125 0.415161099 -0.0445646 -0.0353548
Golden6C04 68.863389 -148.845022 2.805611559 2.625 1.875 5.125 0.415161099 -0.0409935 -0.0270561
Golden6D04 68.863389 -148.845022 2.805611559 2.625 1.875 5.125 0.415161099 -0.045202 -0.0409889
Golden6E04 68.863389 -148.845022 2.805611559 2.625 1.875 5.125 0.415161099 -0.0445926 -0.0341424
Golden6F03 68.863389 -148.845022 2.805611559 2.625 1.875 5.125 0.415161099 -0.0406093 -0.0329386
Golden6F04 68.863389 -148.845022 2.805611559 2.625 1.875 5.125 0.415161099 -0.0378431 -0.0296513
Golden6G03 68.863389 -148.845022 2.805611559 2.625 1.875 5.125 0.415161099 -0.0414036 -0.0298007
Golden6H03 68.863389 -148.845022 2.805611559 2.625 1.875 5.125 0.415161099 -0.0415323 -0.0318372
Golden5A12 68.866114 -148.838931 8.794444444 8.25 0.25 19 14.07453381 -0.0404328 -0.0278159
Golden5B12 68.866114 -148.838931 8.794444444 8.25 0.25 19 14.07453381 -0.0443745 -0.034992
Golden5C11 68.866114 -148.838931 8.794444444 8.25 0.25 19 14.07453381 -0.0398992 -0.0292626
Golden5C12 68.866114 -148.838931 8.794444444 8.25 0.25 19 14.07453381 -0.0415695 -0.0325609
Golden5D11 68.866114 -148.838931 8.794444444 8.25 0.25 19 14.07453381 -0.0413966 -0.0298187
Golden5E11 68.866114 -148.838931 8.794444444 8.25 0.25 19 14.07453381 -0.0425563 -0.0297867
Golden5F11 68.866114 -148.838931 8.794444444 8.25 0.25 19 14.07453381 -0.0392794 -0.0354998
Golden5G11 68.866114 -148.838931 8.794444444 8.25 0.25 19 14.07453381 -0.0382019 -0.0242206
Golden5H11 68.866114 -148.838931 8.794444444 8.25 0.25 19 14.07453381 -0.0418479 -0.0235943
Golden2A12 69.15097 -148.83151 8.794444444 8.25 0.25 19 14.07453381 -0.0380254 -0.0247633
Golden2B12 69.15113 -148.83179 8.794444444 8.25 0.25 19 14.07453381 -0.0419844 -0.0306225
Golden2C12 69.15072 -148.8371 8.794444444 8.25 0.25 19 14.07453381 -0.0427582 -0.0342722
Golden2D12 69.15063 -148.83765 8.794444444 8.25 0.25 19 14.07453381 -0.0387985 -0.0290352
Golden2E12 69.15051 -148.83827 8.794444444 8.25 0.25 19 14.07453381 -0.0428084 -0.0289703
Golden2F11 69.1507 -148.83626 8.794444444 8.25 0.25 19 14.07453381 -0.0459578 -0.0313272
Golden2F12 69.15025 -148.83867 8.794444444 8.25 0.25 19 14.07453381 -0.0394666 -0.0311456
Golden2G12 69.149666 -148.83862 8.794444444 8.25 0.25 19 14.07453381 -0.0368733 -0.0299209
Golden2H11 69.15064 -148.83374 8.794444444 8.25 0.25 19 14.07453381 -0.0404368 -0.0295463
Golden2H12 69.14928 -148.84119 8.794444444 8.25 0.25 19 14.07453381 -0.0320613 -0.025089
Golden3A01 69.15072 -148.83725 8.794444444 8.25 0.25 19 14.07453381 -0.0428564 -0.0299409
Golden3B01 69.73341 -148.69218 8.794444444 8.25 0.25 19 14.07453381 -0.0389807 -0.0283852
Golden3C01 69.73426 -148.69275 8.794444444 8.25 0.25 19 14.07453381 -0.0360949 -0.0334498
Golden3D01 69.7319 -148.68997 8.794444444 8.25 0.25 19 14.07453381 -0.0423897 -0.0297374
Golden3A12 69.94943 -148.61163 8.794444444 8.25 0.25 19 14.07453381 -0.0463313 -0.0355822
Golden3B12 69.94989 -148.61191 8.794444444 8.25 0.25 19 14.07453381 -0.0400584 -0.0265518
Golden3C12 69.94352 -148.61108 8.794444444 8.25 0.25 19 14.07453381 -0.0380235 -0.030537
Golden3D12 69.95148 -148.60971 8.794444444 8.25 0.25 19 14.07453381 -0.0435324 -0.0351689
Golden3E12 69.94831 -148.61133 8.794444444 8.25 0.25 19 14.07453381 -0.0405378 -0.0385726
Golden3F12 69.94739 -148.61137 8.794444444 8.25 0.25 19 14.07453381 -0.0369897 -0.0353026
Golden3G11 69.94905 -148.6115 8.794444444 8.25 0.25 19 14.07453381 -0.0374238 -0.0355548
Golden3G12 69.9525 -148.6056 8.794444444 8.25 0.25 19 14.07453381 -0.0438877 -0.0381922
Golden3H11 69.9508 -148.6118 8.794444444 8.25 0.25 19 14.07453381 -0.0468488 -0.0408478
Golden3H12 69.95339 -148.6114 8.794444444 8.25 0.25 19 14.07453381 -0.0372406 -0.0291832
Golden4A01 69.95113 -148.61078 8.794444444 8.25 0.25 19 14.07453381 -0.0384657 -0.038181
Golden4A02 69.9503 -148.61232 8.794444444 8.25 0.25 19 14.07453381 -0.0432636 -0.0321067
Golden4B01 69.94632 -148.61234 8.794444444 8.25 0.25 19 14.07453381 -0.0388637 -0.0343326
Golden4B02 69.95389 -148.61154 8.794444444 8.25 0.25 19 14.07453381 -0.0388149 -0.0233204
Golden4C01 69.95482 -148.61102 8.794444444 8.25 0.25 19 14.07453381 -0.0331805 -0.0286787
Golden4D01 69.94784 -148.61153 8.794444444 8.25 0.25 19 14.07453381 -0.0367325 -0.0352015
Golden4E01 69.95224 -148.60872 8.794444444 8.25 0.25 19 14.07453381 -0.0397262 -0.0341164
Golden4F01 69.95501 -148.61018 8.794444444 8.25 0.25 19 14.07453381 -0.0388833 -0.028222
Golden4G01 69.95223 -148.60872 8.794444444 8.25 0.25 19 14.07453381 -0.0412135 -0.0351922
Golden4H01 69.9519 -148.60873 8.794444444 8.25 0.25 19 14.07453381 -0.0403633 -0.0403977
