10A CM014990.1
10B CM014991.1
11A CM014992.1
11B CM014993.1
12A CM014994.1
12B CM014995.1
13A CM014996.1
13B CM014997.1
13C CM014998.1
14A CM014999.1
14B CM015000.1
15A CM015001.1
15B CM015002.1
16A CM015003.1
16B CM015004.1
17A CM015005.1
17B CM015006.1
18A CM015007.1
18B CM015008.1
19A CM015009.1
19B CM015010.1
1A CM015011.1
1B CM015012.1
20A CM015013.1
20B CM015014.1
21A CM015015.1
21B CM015016.1
22A CM015017.1
22B CM015018.1
23A CM015019.1
23B CM015020.1
24A CM015021.1
24B CM015022.1
25A CM015023.1
25B CM015024.1
2A CM015025.1
2B CM015026.1
3A CM015027.1
3B CM015028.1
4A CM015029.1
4B CM015030.1
5A CM015031.1
5B CM015032.1
6A CM015033.1
6B CM015034.1
7A CM015035.1
7B CM015036.1
8A CM015037.1
8B CM015038.1
9A CM015039.1
9B CM015040.1
