Detecting adapter sequence for read1...
>Illumina TruSeq Adapter Read 1
AGATCGGAAGAGCACACGTCTGAACTCCAGTCA

Detecting adapter sequence for read2...
No adapter detected for read2

Read1 before filtering:
total reads: 258015627
total bases: 26059578327
Q20 bases: 25224476241(96.7954%)
Q30 bases: 24353454507(93.453%)

Read2 before filtering:
total reads: 258015627
total bases: 26059578327
Q20 bases: 25134845630(96.4515%)
Q30 bases: 23900280774(91.714%)

Read1 after filtering:
total reads: 229408269
total bases: 22029100679
Q20 bases: 21915443077(99.4841%)
Q30 bases: 21483460901(97.5231%)

Read2 after filtering:
total reads: 229408269
total bases: 20179884968
Q20 bases: 19949415473(98.8579%)
Q30 bases: 19275001931(95.5159%)

Filtering result:
reads passed filter: 458816538
reads failed due to low quality: 312522
reads failed due to too many N: 2706
reads failed due to too short: 56899488
reads with adapter trimmed: 18981434
bases trimmed due to adapters: 793245183
reads corrected by overlap analysis: 239848
bases corrected by overlap analysis: 270502

Duplication rate: 73.3929%

Insert size peak (evaluated by paired-end reads): 101

JSON report: fastp.json
HTML report: /home/FCAM/gbarrett/pnu/Golden-pool3_S3.html

fastp --thread 6 -i /home/FCAM/gbarrett/HeidiGolden_ddRAD_Feb2022/HGolden_pool3/HGolden-pool3_S3_L001_R1_001.fastq.gz -I /home/FCAM/gbarrett/HeidiGolden_ddRAD_Feb2022/HGolden_pool3/HGolden-pool3_S3_L001_R2_001.fastq.gz -o /home/FCAM/gbarrett/pnu/Golden-pool3_S3.R1.fq.gz -O /home/FCAM/gbarrett/pnu/Golden-pool3_S3.R2.fq.gz --detect_adapter_for_pe --umi --umi_loc=read2 --umi_len=8 --umi_skip=2 --umi_prefix=UMI -h /home/FCAM/gbarrett/pnu/Golden-pool3_S3.html --cut_right --cut_window_size=15 --cut_mean_quality=30 --correction --overlap_diff_limit=1 
fastp v0.22.0, time used: 4635 seconds
